# 3ds Max Wavefront OBJ Exporter v0.97b - (c)2007 guruware
# File Created: 16.06.2016 09:22:11

mtllib F1_tas_de_feuilles_02.mtl

#
# object tas_de_feuilles_02
#

v  -10.8248 3.2784 2.6620
v  -17.1352 2.7647 11.0783
v  -8.8603 0.6514 17.1538
v  -2.5498 1.1652 8.7374
v  -3.9193 -1.5166 15.5920
v  5.1575 3.7089 15.9882
v  3.9194 6.6243 5.9022
v  -5.1574 1.3988 5.5060
v  17.0234 0.2718 8.9537
v  10.0728 6.4789 4.0464
v  2.6616 3.5683 10.8621
v  9.6123 -2.6387 15.7694
v  6.1293 4.0018 8.0481
v  13.7840 2.9540 0.9658
v  6.8885 4.9817 -6.7868
v  -0.7661 6.0295 0.2956
v  10.1727 0.6403 0.3357
v  19.1567 1.6887 -5.0596
v  13.6873 3.4716 -13.8207
v  4.7032 2.4232 -8.4254
v  7.3218 0.4279 -11.7782
v  0.7123 2.0433 -19.7504
v  -7.3218 2.8480 -12.9265
v  -0.7123 1.2326 -4.9543
v  -7.3067 1.3850 -15.4552
v  -16.8951 4.9106 -12.8952
v  -14.5868 3.8081 -2.7312
v  -4.9985 0.2825 -5.2912
v  -2.1258 6.0548 -6.9878
v  -11.3903 4.4071 -2.3721
v  -6.7849 5.0987 7.1185
v  2.4796 6.7464 2.5029
v  0.0000 7.1110 0.0654
v  -19.6850 -3.5977 19.7504
v  19.6851 -3.5977 19.7504
v  19.6851 -3.5977 -19.6197
v  -19.6850 -3.5977 -19.6197
# 37 vertices

vn 0.1328 0.9782 0.1593
vn 0.1328 0.9782 0.1593
vn 0.1328 0.9782 0.1593
vn 0.1328 0.9782 0.1593
vn -0.4861 0.8218 0.2972
vn -0.4861 0.8218 0.2972
vn -0.4861 0.8218 0.2972
vn -0.4861 0.8218 0.2972
vn 0.2539 0.7586 0.6000
vn 0.2539 0.7586 0.6000
vn 0.2539 0.7586 0.6000
vn 0.2539 0.7586 0.6000
vn 0.2029 0.9763 0.0749
vn 0.2029 0.9763 0.0749
vn 0.2029 0.9763 0.0749
vn 0.2029 0.9763 0.0749
vn 0.0039 0.9804 0.1971
vn 0.0039 0.9804 0.1971
vn 0.0039 0.9804 0.1971
vn 0.0039 0.9804 0.1971
vn 0.1574 0.9851 0.0691
vn 0.1574 0.9851 0.0691
vn 0.1574 0.9851 0.0691
vn 0.1574 0.9851 0.0691
vn 0.3502 0.9364 0.0220
vn 0.3502 0.9364 0.0220
vn 0.3502 0.9364 0.0220
vn 0.3502 0.9364 0.0220
vn -0.1699 0.9854 0.0107
vn -0.1699 0.9854 0.0107
vn -0.1699 0.9854 0.0107
vn -0.1699 0.9854 0.0107
vn -0.0000 1.0000 0.0000
vn -0.2539 0.9333 0.2539
vn 0.2539 0.9333 0.2539
vn -0.0000 1.0000 0.0000
vn 0.2539 0.9333 0.2539
vn 0.2539 0.9333 -0.2539
vn -0.0000 1.0000 0.0000
vn 0.2539 0.9333 -0.2539
vn -0.2539 0.9333 -0.2539
vn -0.0000 1.0000 0.0000
vn -0.2539 0.9333 -0.2539
vn -0.2539 0.9333 0.2539
# 44 vertex normals

vt 0.6079 0.7234 0.0000
vt 0.6079 0.9093 0.0000
vt 0.4220 0.9093 0.0000
vt 0.4220 0.7234 0.0000
vt 0.5780 0.1888 0.0000
vt 0.4022 0.0129 0.0000
vt 0.7539 0.0129 0.0000
vt 0.7539 0.3646 0.0000
vt 0.4022 0.3646 0.0000
# 9 texture coords

g tas_de_feuilles_02
usemtl Material__3
s 1
f 4/4/1 1/1/2 2/2/3 3/3/4 
f 8/4/5 5/1/6 6/2/7 7/3/8 
f 12/4/9 9/1/10 10/2/11 11/3/12 
f 16/4/13 13/1/14 14/2/15 15/3/16 
f 20/4/17 17/1/18 18/2/19 19/3/20 
f 24/4/21 21/1/22 22/2/23 23/3/24 
f 28/4/25 25/1/26 26/2/27 27/3/28 
f 32/4/29 29/1/30 30/2/31 31/3/32 
f 33/5/33 34/6/34 35/7/35 
f 33/5/36 35/7/37 36/8/38 
f 33/5/39 36/8/40 37/9/41 
f 33/5/42 37/9/43 34/6/44 
# 8 polygons - 4 triangles

