# 3ds Max Wavefront OBJ Exporter v0.97b - (c)2007 guruware
# File Created: 16.06.2016 11:20:47

mtllib F1_arbustes_03.mtl

#
# object arbuste_03
#

v  9.6118 -0.0772 -10.6952
v  9.6118 38.6156 -10.6952
v  -16.0316 38.6156 -9.9242
v  -16.0316 -0.0772 -9.9242
v  0.0235 -0.0772 -0.0262
v  0.2631 12.1837 -0.2927
v  9.6118 -0.0772 -10.6952
v  9.6118 38.6156 -10.6952
v  -16.0316 38.6156 -9.9242
v  -16.0316 -0.0772 -9.9242
v  0.0235 -0.0772 -0.0262
v  0.2631 12.1837 -0.2927
v  8.7537 1.3774 -9.5218
v  14.0129 32.2482 -6.1934
v  -5.6798 33.4438 7.0078
v  -10.9390 2.5729 3.6794
v  4.5876 -0.0580 2.0999
v  6.3582 9.7601 2.8643
v  8.7537 1.3774 -9.5218
v  14.0129 32.2482 -6.1934
v  -5.6798 33.4438 7.0078
v  -10.9390 2.5729 3.6794
v  4.5876 -0.0580 2.0999
v  6.3582 9.7601 2.8643
v  -8.7617 1.3186 -7.7964
v  -15.3526 25.2968 -4.7069
v  -1.0139 26.8503 5.4058
v  5.5771 2.8721 2.3163
v  -6.5690 -0.0445 1.2238
v  -8.7123 7.5878 1.9775
v  -8.7617 1.3186 -7.7964
v  -15.3526 25.2968 -4.7069
v  -1.0139 26.8503 5.4058
v  5.5770 2.8721 2.3163
v  -6.5690 -0.0445 1.2238
v  -8.7123 7.5878 1.9775
v  6.9994 17.6497 -14.2818
v  13.5130 19.4950 -11.9957
v  7.9389 11.4729 -10.4578
v  0.1175 16.9099 -12.5680
v  5.6916 24.9320 -14.1060
v  14.8469 14.5426 -7.9860
v  16.0121 21.3657 -10.5112
v  17.3688 17.2207 -1.8371
v  10.7269 10.2682 -3.8720
v  9.3702 14.4132 -12.5461
v  17.0566 26.3511 -5.0970
v  16.0066 24.3984 -11.8921
v  12.4275 31.8032 -6.4664
v  14.3370 26.4994 1.4900
v  17.9162 19.0947 -3.9356
v  8.8327 29.2063 -11.8816
v  13.5775 23.7714 -12.8632
v  3.9927 24.1643 -13.8461
v  3.6577 31.8975 -7.7195
v  13.2425 31.5047 -6.7366
v  6.6311 18.7552 -10.2819
v  11.9153 22.8475 -13.0000
v  2.3305 23.2404 -13.9829
v  1.7152 13.5574 -11.5637
v  11.3000 13.1645 -10.5808
v  11.8920 17.0912 -6.3971
v  14.2276 20.3674 -12.3485
v  8.6534 12.3453 -10.8105
v  12.5114 11.2664 -2.0347
v  18.0856 19.2885 -3.5727
v  13.2871 24.5467 -5.3051
v  16.4050 23.4662 -11.6299
v  17.7617 19.3212 -2.9558
v  13.9387 27.4316 1.2278
v  12.5819 31.5766 -7.4463
v  8.4025 26.4626 -8.7011
v  14.8560 25.2642 -11.4989
v  11.2769 32.6690 -6.0732
v  2.3792 30.4047 -9.0838
v  5.9583 23.0000 -14.5094
v  0.4376 37.0942 5.9862
v  -1.1543 31.7468 10.6568
v  6.9026 33.9790 5.8140
v  1.6709 38.7713 -0.8461
v  -6.3860 36.5391 3.9967
v  4.8591 27.1238 11.0509
v  -2.0821 27.7304 12.5625
v  3.4638 19.9140 10.1760
v  9.7429 26.1243 5.9491
v  4.1971 33.9407 8.3356
v  -7.7360 21.2688 10.6622
v  -6.8533 28.1753 13.0902
v  -13.1515 24.1136 6.9221
v  -6.9548 16.6613 5.1348
v  -0.6566 20.7229 11.3028
v  -11.9901 31.9725 5.5630
v  -6.9774 31.3058 10.5896
v  -7.3839 36.5673 2.3921
v  -13.9750 30.1941 -1.0656
v  -13.5684 24.9326 7.1319
v  0.0790 33.4239 3.8245
v  -4.3373 32.8861 9.3951
v  -4.7439 38.1476 1.1977
v  4.8539 37.6320 0.4155
v  5.2605 32.3705 8.6130
v  2.8018 26.7309 7.4607
v  -1.3459 30.6765 11.8423
v  6.7110 32.9087 6.9995
v  9.0067 23.1783 6.6693
v  0.9498 20.9461 11.5120
v  -6.0721 23.5677 7.5627
v  -6.2378 27.9802 13.2867
v  -0.6920 20.1638 10.9002
v  -7.5703 16.8564 4.9382
v  -13.1161 24.6728 7.3247
v  -8.9623 29.5274 3.9609
v  -8.3195 29.1820 11.0518
v  -14.6177 25.1204 4.8837
v  -12.6329 32.3179 -1.5278
v  -6.3346 36.3795 4.6403
v  -8.7121 24.1499 7.4735
v  -14.2378 19.6240 6.3247
v  -4.8163 17.9456 7.5911
v  -2.8862 27.2950 4.6965
v  -12.3078 28.9734 3.4300
v  -11.2502 13.9605 5.6728
v  -16.9146 18.3532 4.7417
v  -13.5365 10.4913 -0.1960
v  -4.7276 12.1508 3.3860
v  -8.1056 20.0127 8.3236
v  -20.0826 17.5922 -1.9357
v  -19.3156 20.9127 4.3901
v  -20.6536 24.4708 -4.5247
v  -17.0406 15.9964 -8.1963
v  -15.7026 12.4383 0.7185
v  -17.1984 28.1745 0.2942
v  -17.3967 22.4704 4.8398
v  -10.7542 29.4978 3.0611
v  -14.4414 30.8537 -5.7525
v  -21.0839 23.8263 -3.9737
v  -8.4120 22.7692 3.5477
v  -15.3606 23.1414 5.0943
v  -8.7181 30.1687 3.3156
v  -1.7634 23.7777 5.9269
v  -8.4059 16.7503 7.7056
v  -10.3919 16.5435 2.4548
v  -15.2854 20.0201 6.4142
v  -5.8638 18.3417 7.6806
v  -6.3568 10.4839 1.7135
v  -15.7783 12.1623 0.4470
v  -16.2736 19.3169 -1.8705
v  -18.9408 20.0050 4.7062
v  -15.5627 12.1432 -0.2315
v  -17.4154 16.9041 -8.5123
v  -20.7935 24.7660 -3.5747
v  -14.6397 25.1497 -1.2068
v  -18.9893 21.7781 3.4157
v  -20.3273 25.3362 -5.4990
v  -12.8488 31.5461 -4.3284
v  -11.5108 27.9879 4.5864
v  -5.5218 40.3782 -8.4704
v  -10.7164 39.0579 -3.7578
v  -1.3619 41.2489 -2.7434
v  0.3564 37.7603 -11.6183
v  -8.9980 35.5693 -12.6327
v  -7.9458 39.0916 4.4744
v  -13.7005 37.1291 0.7161
v  -9.5979 33.3287 8.6396
v  -1.1880 37.4790 6.1268
v  -5.2906 41.2794 -1.7967
v  -18.4889 28.1732 1.4032
v  -18.3455 34.5325 -2.2531
v  -19.0995 24.9509 -4.9863
v  -14.9050 22.0584 3.2381
v  -14.1509 31.6400 5.9713
v  -15.7913 29.9565 -12.0258
v  -15.9957 35.0823 -6.8824
v  -9.6941 33.2261 -13.9589
v  -12.7262 23.7187 -14.3518
v  -19.0279 25.5749 -7.2753
v  -4.8381 36.4400 -6.9058
v  -11.8927 37.4984 -6.8754
v  -5.5910 35.6422 -13.9519
v  1.5327 39.3198 -8.5008
v  -4.7689 41.1760 -1.4242
v  -6.9427 35.5165 2.3686
v  -12.2357 38.8002 -1.2109
v  -2.8813 40.9912 -0.1965
v  -2.6527 35.8079 8.0538
v  -12.0072 33.6169 7.0394
v  -14.7616 28.4177 -0.4182
v  -18.0996 34.8252 -1.7137
v  -13.9970 31.0248 6.2098
v  -15.1509 21.7657 2.6986
v  -19.2535 25.5661 -5.2249
v  -12.9306 28.8445 -9.2084
v  -17.4601 33.4789 -5.9809
v  -18.2142 23.8973 -8.7140
v  -11.2618 25.3221 -15.2533
v  -10.5077 34.9037 -12.5201
v  9.9202 34.7846 -11.6593
v  10.2445 37.5609 -5.0587
v  14.2511 29.5024 -9.1626
v  7.2944 29.4389 -15.8392
v  3.2878 37.4975 -11.7353
v  14.1556 32.7496 -0.9570
v  9.7266 38.5547 -1.0596
v  10.9986 31.0679 5.2253
v  14.8068 25.4190 -1.7711
v  13.5348 32.9057 -8.0561
v  3.1209 38.5458 4.4142
v  6.5888 41.6504 -1.0503
v  -2.7632 39.9333 0.6195
v  -0.4209 32.5935 6.7552
v  8.9311 34.3105 5.0854
v  -0.8758 40.6048 -6.8973
v  5.8426 40.8714 -4.5305
v  1.8334 36.7749 -12.3649
v  -6.6693 36.3987 -7.8318
v  -2.6601 40.4952 0.0026
v  7.6186 32.2153 -9.2386
v  7.2964 39.0182 -6.4308
v  3.2872 34.9217 -14.2652
v  10.2425 27.9817 -14.4671
v  14.2516 32.0782 -6.6328
v  10.3778 31.2241 -1.8737
v  10.3938 38.4151 -3.5945
v  14.4004 30.3566 -7.6984
v  14.1396 25.5585 0.7638
v  10.1330 33.6171 4.8677
v  3.0469 35.6981 1.2907
v  7.2262 41.3042 -0.7734
v  8.4982 33.8175 5.5116
v  -1.0584 32.9397 6.4783
v  -2.3304 40.4264 0.1933
v  0.0491 36.6654 -5.4649
v  4.7393 41.3627 -2.5681
v  -4.6127 39.6456 -0.8983
v  -5.5660 35.9074 -9.7942
v  3.7860 37.6245 -11.4640
v  0.4376 37.0942 -12.8605
v  -4.3373 32.8861 -16.2694
v  -4.7438 38.1476 -8.0720
v  4.8540 37.6320 -7.2898
v  5.2605 32.3705 -15.4873
v  4.8591 27.1238 -17.9252
v  -1.3458 30.6765 -18.7166
v  6.7111 32.9087 -13.8738
v  9.0067 23.1783 -13.5436
v  0.9498 20.9461 -18.3863
v  -7.7360 21.2688 -17.5365
v  -6.2378 27.9802 -20.1610
v  -0.6920 20.1638 -17.7745
v  -7.5703 16.8564 -11.8126
v  -13.1161 24.6727 -14.1990
v  -11.9900 31.9725 -12.4373
v  -8.3194 29.1820 -17.9261
v  -14.6177 25.1204 -11.7580
v  -12.6329 32.3179 -5.3465
v  -6.3346 36.3795 -11.5146
v  0.0790 33.4239 -10.6988
v  -1.1543 31.7468 -17.5311
v  6.9026 33.9790 -12.6883
v  1.6710 38.7713 -6.0282
v  -6.3859 36.5391 -10.8710
v  2.8018 26.7309 -14.3350
v  -2.0820 27.7304 -19.4368
v  3.4638 19.9140 -17.0503
v  9.7429 26.1243 -12.8234
v  4.1971 33.9407 -15.2099
v  -6.0721 23.5677 -14.4370
v  -6.8533 28.1753 -19.9644
v  -13.1515 24.1136 -13.7963
v  -6.9548 16.6613 -12.0090
v  -0.6566 20.7229 -18.1772
v  -8.9623 29.5274 -10.8353
v  -6.9773 31.3057 -17.4639
v  -7.3839 36.5673 -9.2664
v  -13.9749 30.1941 -5.8087
v  -13.5684 24.9326 -14.0062
v  6.9993 17.6498 7.4075
v  11.9152 22.8475 6.1257
v  2.3304 23.2404 7.1086
v  1.7151 13.5574 4.6894
v  11.2999 13.1646 3.7065
v  14.8468 14.5427 1.1117
v  14.2275 20.3675 5.4742
v  8.6533 12.3454 3.9362
v  12.5113 11.2664 -4.8396
v  18.0855 19.2885 -3.3017
v  17.0565 26.3512 -1.7774
v  16.4049 23.4662 4.7556
v  17.7616 19.3212 -3.9185
v  13.9386 27.4317 -8.1021
v  12.5819 31.5766 0.5719
v  8.8326 29.2063 5.0072
v  14.8559 25.2642 4.6245
v  11.2768 32.6690 -0.8011
v  2.3791 30.4048 2.2094
v  5.9582 23.0000 7.6351
v  6.6310 18.7552 3.4076
v  13.5129 19.4951 5.1214
v  7.9388 11.4730 3.5834
v  0.1174 16.9099 5.6937
v  5.6915 24.9320 7.2316
v  11.8919 17.0912 -0.4772
v  16.0120 21.3657 3.6369
v  17.3687 17.2207 -5.0372
v  10.7268 10.2682 -3.0023
v  9.3701 14.4132 5.6717
v  13.2870 24.5467 -1.5692
v  16.0065 24.3984 5.0178
v  12.4274 31.8032 -0.4079
v  14.3370 26.4995 -8.3643
v  17.9161 19.0947 -2.9387
v  8.4024 26.4627 1.8267
v  13.5774 23.7714 5.9888
v  3.9926 24.1643 6.9717
v  3.6576 31.8975 0.8451
v  13.2424 31.5047 -0.1377
v  8.5469 13.2063 -10.0328
v  4.5591 15.9737 -15.3069
v  11.3883 19.9938 -9.7046
v  9.6937 13.0072 -3.0006
v  2.8645 8.9871 -8.6029
v  -1.3551 9.4969 -10.2328
v  2.5073 13.1081 -15.1135
v  4.6892 9.3136 -6.4593
v  -4.5892 9.8768 -3.8916
v  -6.7711 13.6713 -12.5457
v  -4.9150 19.5274 -16.5727
v  0.6128 15.1112 -18.0574
v  -6.9813 14.0857 -12.1980
v  -7.9140 24.0545 -11.7926
v  -0.3199 25.0800 -17.6521
v  5.6470 23.0441 -16.2616
v  1.5558 17.2272 -17.9235
v  -0.3784 26.9711 -16.7426
v  7.4776 27.9345 -11.2290
v  9.4118 18.1905 -12.4099
v  5.7059 15.7746 -8.2747
v  2.6907 12.8319 -14.0800
v  4.8726 9.0373 -5.4258
v  11.5621 16.1490 -4.2275
v  9.3802 19.9435 -12.8816
v  -0.7268 13.4880 -8.7722
v  -0.1240 13.8534 -15.8657
v  -7.7181 12.8280 -10.0062
v  -1.9579 9.1315 -3.1393
v  5.6362 10.1569 -8.9988
v  -2.3862 19.6383 -13.2774
v  1.0178 15.8818 -18.3922
v  -0.9164 25.6258 -17.2114
v  -8.3190 23.2838 -11.4578
v  -6.3848 13.5399 -12.6387
v  3.3865 22.1176 -12.8910
v  3.2713 16.1067 -17.0580
v  10.1005 20.1268 -11.4556
v  5.7622 29.0549 -12.0946
v  -1.0670 25.0348 -17.6969
v  -8.7121 24.1499 -14.3477
v  -15.3606 23.1414 -11.9686
v  -8.7181 30.1688 -10.1899
v  -1.7634 23.7777 -12.8011
v  -8.4059 16.7503 -14.5799
v  -11.2502 13.9605 -12.5471
v  -15.2853 20.0202 -13.2884
v  -5.8638 18.3418 -14.5549
v  -6.3568 10.4839 -8.5878
v  -15.7783 12.1623 -7.3213
v  -20.0826 17.5922 -4.9386
v  -18.9407 20.0051 -11.5805
v  -15.5627 12.1432 -6.6428
v  -17.4154 16.9041 1.6381
v  -20.7935 24.7660 -3.2996
v  -17.1984 28.1745 -7.1685
v  -18.9893 21.7781 -10.2900
v  -20.3273 25.3363 -1.3753
v  -12.8487 31.5461 -2.5459
v  -11.5107 27.9879 -11.4607
v  -8.4119 22.7692 -10.4220
v  -14.2378 19.6240 -13.1989
v  -4.8162 17.9456 -14.4654
v  -2.8862 27.2951 -11.5708
v  -12.3077 28.9735 -10.3043
v  -10.3919 16.5436 -9.3291
v  -16.9145 18.3532 -11.6159
v  -13.5365 10.4914 -6.6783
v  -4.7275 12.1508 -10.2603
v  -8.1056 20.0127 -15.1979
v  -16.2736 19.3170 -5.0038
v  -19.3156 20.9127 -11.2643
v  -20.6536 24.4709 -2.3496
v  -17.0406 15.9965 1.3220
v  -15.7026 12.4383 -7.5928
v  -14.6397 25.1497 -5.6675
v  -17.3966 22.4705 -11.7141
v  -10.7541 29.4978 -9.9354
v  -14.4414 30.8538 -1.1218
v  -21.0839 23.8264 -2.9006
v  16.4758 23.4438 -12.7326
v  -1.0799 24.1634 -14.5329
v  5.0499 7.0002 -9.5801
v  18.5828 17.0068 0.7380
v  10.4569 35.8962 -3.6085
v  16.4758 23.4438 -12.7326
v  -1.0799 24.1634 -14.5329
v  5.0499 7.0002 -9.5801
v  18.5828 17.0068 0.7380
v  10.4569 35.8962 -3.6085
v  -6.0170 29.7412 14.6137
v  -6.8746 40.8413 -2.6801
v  13.6665 35.1946 2.7824
v  3.8417 15.8463 10.3713
v  -18.5369 21.6673 2.3524
v  -6.0170 29.7412 14.6137
v  -6.8746 40.8413 -2.6801
v  13.6665 35.1946 2.7824
v  3.8417 15.8463 10.3713
v  -18.5369 21.6673 2.3524
v  -19.1341 20.4263 5.6893
v  -7.2015 33.0503 2.4939
v  0.6495 16.9020 8.3486
v  -13.9786 8.4277 -1.8464
v  -21.4216 26.5096 -9.5521
v  -19.1341 20.4263 5.6893
v  -7.2015 33.0503 2.4939
v  0.6495 16.9020 8.3486
v  -13.9786 8.4277 -1.8464
v  -21.4216 26.5096 -9.5521
v  -18.8802 37.8806 -2.9316
v  -3.6728 33.4011 -20.0090
v  7.0132 43.9455 -0.1237
v  -10.4657 30.0859 13.3197
v  -20.5298 16.9197 -8.9107
v  -18.8802 37.8806 -2.9316
v  -3.6728 33.4011 -20.0090
v  7.0132 43.9455 -0.1237
v  -10.4657 30.0859 13.3197
v  -20.5298 16.9197 -8.9107
v  8.4227 42.5715 -1.8707
v  0.1399 34.1084 -18.0562
v  17.7456 23.8199 -11.4200
v  10.6318 29.5691 9.0446
v  -9.8026 39.2253 1.3834
v  8.4227 42.5715 -1.8707
v  0.1399 34.1084 -18.0562
v  17.7456 23.8199 -11.4200
v  10.6318 29.5691 9.0446
v  -9.8026 39.2253 1.3834
v  -6.0169 29.7412 -21.4880
v  -6.8746 40.8413 -4.1942
v  13.6665 35.1946 -9.6567
v  3.8417 15.8462 -17.2456
v  -18.5369 21.6673 -9.2267
v  -6.0169 29.7412 -21.4880
v  -6.8746 40.8413 -4.1942
v  13.6665 35.1946 -9.6567
v  3.8417 15.8462 -17.2456
v  -18.5369 21.6673 -9.2267
v  16.4757 23.4438 5.8583
v  -1.0801 24.1634 7.6586
v  5.0498 7.0002 2.7058
v  18.5827 17.0068 -7.6123
v  10.4568 35.8962 -3.2659
v  16.4757 23.4438 5.8583
v  -1.0801 24.1634 7.6586
v  5.0498 7.0002 2.7058
v  18.5827 17.0068 -7.6123
v  10.4568 35.8962 -3.2659
v  1.4159 14.6970 -18.6608
v  13.9488 22.0747 -8.3794
v  6.0145 6.6995 -0.4210
v  -10.5531 13.0808 -9.4257
v  -1.8145 30.9707 -16.6886
v  1.4159 14.6970 -18.6608
v  13.9488 22.0747 -8.3794
v  6.0145 6.6995 -0.4210
v  -10.5531 13.0808 -9.4257
v  -1.8145 30.9707 -16.6886
v  -19.1341 20.4263 -12.5635
v  -7.2014 33.0503 -9.3682
v  0.6495 16.9020 -15.2229
v  -13.9786 8.4278 -5.0279
v  -21.4216 26.5097 2.6778
v  -19.1341 20.4263 -12.5635
v  -7.2014 33.0503 -9.3682
v  0.6495 16.9020 -15.2229
v  -13.9786 8.4278 -5.0279
v  -21.4216 26.5097 2.6778
# 486 vertices

vn 0.0298 0.1020 1.1161
vn 0.0453 0.3205 1.0607
vn -0.3481 0.1975 1.0245
vn -0.4786 0.0070 0.9618
vn 0.0298 0.1020 1.1161
vn -0.4786 0.0070 0.9618
vn 0.0227 0.0194 1.1225
vn 0.0227 0.0194 1.1225
vn 0.5347 -0.0000 0.8450
vn 0.0453 0.3205 1.0607
vn 0.0298 0.1020 1.1161
vn -0.0298 -0.1020 -1.1161
vn -0.0227 -0.0194 -1.1225
vn 0.4786 -0.0070 -0.9618
vn 0.3481 -0.1975 -1.0245
vn -0.0298 -0.1020 -1.1161
vn 0.3481 -0.1975 -1.0245
vn -0.0453 -0.3205 -1.0607
vn -0.0227 -0.0194 -1.1225
vn -0.0298 -0.1020 -1.1161
vn -0.0453 -0.3205 -1.0607
vn -0.5347 0.0000 -0.8450
vn 0.4521 -0.1927 0.9020
vn 0.5081 0.0491 0.8719
vn 0.0718 0.0324 1.1155
vn -0.1405 -0.1390 1.1069
vn 0.4521 -0.1927 0.9020
vn -0.1405 -0.1390 1.1069
vn 0.3890 -0.2749 0.9287
vn 0.3890 -0.2749 0.9287
vn 0.7891 -0.3107 0.2119
vn 0.5081 0.0491 0.8719
vn 0.4521 -0.1927 0.9020
vn -0.4521 0.1927 -0.9020
vn -0.3890 0.2749 -0.9287
vn 0.1405 0.1390 -1.1069
vn -0.0718 -0.0324 -1.1155
vn -0.4521 0.1927 -0.9020
vn -0.0718 -0.0324 -1.1155
vn -0.5081 -0.0491 -0.8719
vn -0.3890 0.2749 -0.9287
vn -0.4521 0.1927 -0.9020
vn -0.5081 -0.0491 -0.8719
vn -0.7891 0.3107 -0.2119
vn -0.5662 -0.2046 0.8464
vn -0.5032 -0.2558 0.8942
vn -0.2416 -0.1588 1.0788
vn -0.3803 -0.0443 1.0297
vn -0.5662 -0.2046 0.8464
vn -0.3803 -0.0443 1.0297
vn -0.6397 -0.0885 0.7801
vn -0.5032 -0.2558 0.8942
vn -0.5662 -0.2046 0.8464
vn -0.6397 -0.0885 0.7801
vn -0.7417 -0.3619 0.4326
vn 0.5662 0.2046 -0.8464
vn 0.6397 0.0885 -0.7801
vn 0.3803 0.0443 -1.0297
vn 0.2416 0.1588 -1.0788
vn 0.5662 0.2046 -0.8464
vn 0.2416 0.1588 -1.0788
vn 0.5032 0.2558 -0.8942
vn 0.5032 0.2558 -0.8942
vn 0.7417 0.3619 -0.4326
vn 0.6397 0.0885 -0.7801
vn 0.5662 0.2046 -0.8464
vn 0.2246 -0.2793 -1.0525
vn 0.4034 -0.2398 -0.9793
vn 0.2802 -0.5325 -0.8951
vn 0.2246 -0.2793 -1.0525
vn 0.2802 -0.5325 -0.8951
vn 0.0528 -0.3136 -1.0688
vn 0.2246 -0.2793 -1.0525
vn 0.0528 -0.3136 -1.0688
vn 0.1997 0.0273 -1.1054
vn 0.2246 -0.2793 -1.0525
vn 0.1997 0.0273 -1.1054
vn 0.4034 -0.2398 -0.9793
vn 0.5546 -0.6280 -0.5192
vn 0.6212 -0.3651 -0.6941
vn 0.6468 -0.5947 -0.3488
vn 0.5546 -0.6280 -0.5192
vn 0.6468 -0.5947 -0.3488
vn 0.3958 -0.8365 -0.3552
vn 0.5546 -0.6280 -0.5192
vn 0.3958 -0.8365 -0.3552
vn 0.4208 -0.6456 -0.6832
vn 0.5546 -0.6280 -0.5192
vn 0.4208 -0.6456 -0.6832
vn 0.6212 -0.3651 -0.6941
vn 0.7322 0.5160 -0.0958
vn 0.6796 0.4730 -0.4715
vn 0.5411 0.7569 -0.2198
vn 0.7322 0.5160 -0.0958
vn 0.5411 0.7569 -0.2198
vn 0.6486 0.5951 0.2609
vn 0.7322 0.5160 -0.0958
vn 0.6486 0.5951 0.2609
vn 0.8366 0.2112 -0.0629
vn 0.7322 0.5160 -0.0958
vn 0.8366 0.2112 -0.0629
vn 0.6796 0.4730 -0.4715
vn 0.1992 0.6577 -0.8179
vn 0.3734 0.4934 -0.8693
vn 0.0780 0.5597 -0.9310
vn 0.1992 0.6577 -0.8179
vn 0.0780 0.5597 -0.9310
vn 0.0240 0.8042 -0.6690
vn 0.1992 0.6577 -0.8179
vn 0.0240 0.8042 -0.6690
vn 0.3194 0.7319 -0.6609
vn 0.1992 0.6577 -0.8179
vn 0.3194 0.7319 -0.6609
vn 0.3734 0.4934 -0.8693
vn -0.2298 0.2732 1.0530
vn -0.0617 0.4479 1.0059
vn -0.3684 0.4113 0.9263
vn -0.2298 0.2732 1.0530
vn -0.3684 0.4113 0.9263
vn -0.3985 0.1192 1.0108
vn -0.2298 0.2732 1.0530
vn -0.3985 0.1192 1.0108
vn -0.0941 0.1034 1.1174
vn -0.2298 0.2732 1.0530
vn -0.0941 0.1034 1.1174
vn -0.0617 0.4479 1.0059
vn -0.5552 0.6233 0.5255
vn -0.4739 0.8058 0.2656
vn -0.6705 0.5349 0.3975
vn -0.5552 0.6233 0.5255
vn -0.6705 0.5349 0.3975
vn -0.5412 0.4268 0.7606
vn -0.5552 0.6233 0.5255
vn -0.5412 0.4268 0.7606
vn -0.4001 0.6933 0.6414
vn -0.5552 0.6233 0.5255
vn -0.4001 0.6933 0.6414
vn -0.4739 0.8058 0.2656
vn -0.7333 -0.5139 0.0965
vn -0.6195 -0.6410 -0.2494
vn -0.5523 -0.7370 0.2607
vn -0.7333 -0.5139 0.0965
vn -0.5523 -0.7370 0.2607
vn -0.6984 -0.4314 0.4760
vn -0.7333 -0.5139 0.0965
vn -0.6984 -0.4314 0.4760
vn -0.8312 -0.2350 0.0033
vn -0.7333 -0.5139 0.0965
vn -0.8312 -0.2350 0.0033
vn -0.6195 -0.6410 -0.2494
vn -0.1999 -0.6609 0.8144
vn -0.0125 -0.7379 0.7595
vn -0.1212 -0.4937 0.9723
vn -0.1999 -0.6609 0.8144
vn -0.1212 -0.4937 0.9723
vn -0.3793 -0.5700 0.8015
vn -0.1999 -0.6609 0.8144
vn -0.3793 -0.5700 0.8015
vn -0.2810 -0.7820 0.6132
vn -0.1999 -0.6609 0.8144
vn -0.2810 -0.7820 0.6132
vn -0.0125 -0.7379 0.7595
vn -0.0267 0.8841 0.5260
vn -0.1062 0.7148 0.7805
vn 0.1319 0.8490 0.5603
vn -0.0267 0.8841 0.5260
vn 0.1319 0.8490 0.5603
vn 0.0096 0.9794 0.2261
vn -0.0267 0.8841 0.5260
vn 0.0096 0.9794 0.2261
vn -0.1952 0.8900 0.4561
vn -0.0267 0.8841 0.5260
vn -0.1952 0.8900 0.4561
vn -0.1062 0.7148 0.7805
vn 0.2666 0.1162 1.0440
vn -0.0495 0.1500 1.1129
vn 0.1535 -0.2720 1.0536
vn 0.2666 0.1162 1.0440
vn 0.1535 -0.2720 1.0536
vn 0.5078 0.0850 0.8687
vn 0.2666 0.1162 1.0440
vn 0.5078 0.0850 0.8687
vn 0.1917 0.5039 0.9263
vn 0.2666 0.1162 1.0440
vn 0.1917 0.5039 0.9263
vn -0.0495 0.1500 1.1129
vn -0.3839 -0.5417 0.8232
vn -0.3731 -0.2975 0.9782
vn -0.5212 -0.4970 0.7274
vn -0.3839 -0.5417 0.8232
vn -0.5212 -0.4970 0.7274
vn -0.3666 -0.7427 0.6015
vn -0.3839 -0.5417 0.8232
vn -0.3666 -0.7427 0.6015
vn -0.2322 -0.5728 0.8841
vn -0.3839 -0.5417 0.8232
vn -0.2322 -0.5728 0.8841
vn -0.3731 -0.2975 0.9782
vn -0.5679 0.6070 0.5272
vn -0.4429 0.6047 0.7083
vn -0.3966 0.8150 0.4160
vn -0.5679 0.6070 0.5272
vn -0.3966 0.8150 0.4160
vn -0.6507 0.5935 0.3373
vn -0.5679 0.6070 0.5272
vn -0.6507 0.5935 0.3373
vn -0.6571 0.3341 0.6556
vn -0.5679 0.6070 0.5272
vn -0.6571 0.3341 0.6556
vn -0.4429 0.6047 0.7083
vn 0.0295 -0.8807 -0.5330
vn -0.1344 -0.9536 -0.2807
vn -0.0909 -0.8087 -0.6450
vn 0.0295 -0.8807 -0.5330
vn -0.0909 -0.8087 -0.6450
vn 0.2172 -0.7566 -0.6911
vn 0.0295 -0.8807 -0.5330
vn 0.2172 -0.7566 -0.6911
vn 0.1596 -0.9243 -0.3845
vn 0.0295 -0.8807 -0.5330
vn 0.1596 -0.9243 -0.3845
vn -0.1344 -0.9536 -0.2807
vn -0.2636 -0.1131 -1.0460
vn -0.4742 0.0783 -0.9027
vn -0.0321 0.1769 -1.1040
vn -0.2636 -0.1131 -1.0460
vn -0.0321 0.1769 -1.1040
vn 0.0305 -0.2669 -1.0848
vn -0.2636 -0.1131 -1.0460
vn 0.0305 -0.2669 -1.0848
vn -0.3409 -0.4693 -0.8651
vn -0.2636 -0.1131 -1.0460
vn -0.3409 -0.4693 -0.8651
vn -0.4742 0.0783 -0.9027
vn 0.3841 0.5415 -0.8232
vn 0.3894 0.7274 -0.6019
vn 0.5250 0.4821 -0.7361
vn 0.3841 0.5415 -0.8232
vn 0.5250 0.4821 -0.7361
vn 0.3519 0.3163 -0.9831
vn 0.3841 0.5415 -0.8232
vn 0.3519 0.3163 -0.9831
vn 0.2279 0.5870 -0.8738
vn 0.3841 0.5415 -0.8232
vn 0.2279 0.5870 -0.8738
vn 0.3894 0.7274 -0.6019
vn 0.5650 -0.6071 -0.5326
vn 0.6157 -0.6563 -0.2940
vn 0.3857 -0.7708 -0.5302
vn 0.5650 -0.6071 -0.5326
vn 0.3857 -0.7708 -0.5302
vn 0.4658 -0.5479 -0.7432
vn 0.5650 -0.6071 -0.5326
vn 0.4658 -0.5479 -0.7432
vn 0.6960 -0.3794 -0.5396
vn 0.5650 -0.6071 -0.5326
vn 0.6960 -0.3794 -0.5396
vn 0.6157 -0.6563 -0.2940
vn -0.2154 0.3436 1.0307
vn -0.3935 0.2202 0.9918
vn -0.0990 0.1431 1.1114
vn -0.2154 0.3436 1.0307
vn -0.0990 0.1431 1.1114
vn -0.0361 0.4794 0.9879
vn -0.2154 0.3436 1.0307
vn -0.0361 0.4794 0.9879
vn -0.3388 0.5011 0.8864
vn -0.2154 0.3436 1.0307
vn -0.3388 0.5011 0.8864
vn -0.3935 0.2202 0.9918
vn -0.2669 -0.6151 0.8308
vn -0.4350 -0.5130 0.8048
vn -0.3433 -0.7369 0.6331
vn -0.2669 -0.6151 0.8308
vn -0.3433 -0.7369 0.6331
vn -0.0866 -0.7030 0.7970
vn -0.2669 -0.6151 0.8308
vn -0.0866 -0.7030 0.7970
vn -0.1840 -0.4539 0.9837
vn -0.2669 -0.6151 0.8308
vn -0.1840 -0.4539 0.9837
vn -0.4350 -0.5130 0.8048
vn -0.7433 -0.4885 0.1414
vn -0.7053 -0.3860 0.5102
vn -0.8351 -0.2185 0.0279
vn -0.7433 -0.4885 0.1414
vn -0.8351 -0.2185 0.0279
vn -0.6350 -0.6375 -0.1943
vn -0.7433 -0.4885 0.1414
vn -0.6350 -0.6375 -0.1943
vn -0.5689 -0.7038 0.3173
vn -0.7433 -0.4885 0.1414
vn -0.5689 -0.7038 0.3173
vn -0.7053 -0.3860 0.5102
vn -0.4770 0.7283 0.4779
vn -0.4948 0.5370 0.7214
vn -0.3248 0.7767 0.5854
vn -0.4770 0.7283 0.4779
vn -0.3248 0.7767 0.5854
vn -0.3748 0.8833 0.2118
vn -0.4770 0.7283 0.4779
vn -0.3748 0.8833 0.2118
vn -0.5948 0.6599 0.3582
vn -0.4770 0.7283 0.4779
vn -0.5948 0.6599 0.3582
vn -0.4948 0.5370 0.7214
vn 0.2088 -0.3466 -1.0314
vn 0.0398 -0.3553 -1.0523
vn 0.2259 -0.0345 -1.0979
vn 0.2088 -0.3466 -1.0314
vn 0.2259 -0.0345 -1.0979
vn 0.3883 -0.3301 -0.9548
vn 0.2088 -0.3466 -1.0314
vn 0.3883 -0.3301 -0.9548
vn 0.2306 -0.6088 -0.8533
vn 0.2088 -0.3466 -1.0314
vn 0.2306 -0.6088 -0.8533
vn 0.0398 -0.3553 -1.0523
vn 0.2658 0.6125 -0.8338
vn 0.1025 0.7835 -0.6920
vn 0.3852 0.6724 -0.6846
vn 0.2658 0.6125 -0.8338
vn 0.3852 0.6724 -0.6846
vn 0.4216 0.4183 -0.8843
vn 0.2658 0.6125 -0.8338
vn 0.4216 0.4183 -0.8843
vn 0.1406 0.5347 -0.9408
vn 0.2658 0.6125 -0.8338
vn 0.1406 0.5347 -0.9408
vn 0.1025 0.7835 -0.6920
vn 0.7423 0.4908 -0.1409
vn 0.6629 0.5925 0.2082
vn 0.8398 0.1913 -0.0836
vn 0.7423 0.4908 -0.1409
vn 0.8398 0.1913 -0.0836
vn 0.6877 0.4279 -0.5083
vn 0.7423 0.4908 -0.1409
vn 0.6877 0.4279 -0.5083
vn 0.5586 0.7258 -0.2792
vn 0.7423 0.4908 -0.1409
vn 0.5586 0.7258 -0.2792
vn 0.6629 0.5925 0.2082
vn 0.4756 -0.7317 -0.4733
vn 0.3110 -0.9016 -0.2833
vn 0.3431 -0.7442 -0.6220
vn 0.4756 -0.7317 -0.4733
vn 0.3431 -0.7442 -0.6220
vn 0.5644 -0.4989 -0.6674
vn 0.4756 -0.7317 -0.4733
vn 0.5644 -0.4989 -0.6674
vn 0.5734 -0.6992 -0.3164
vn 0.4756 -0.7317 -0.4733
vn 0.5734 -0.6992 -0.3164
vn 0.3110 -0.9016 -0.2833
vn -0.0443 0.9425 -0.3685
vn -0.2344 0.9481 -0.1671
vn 0.0640 0.9838 -0.1870
vn -0.0443 0.9425 -0.3685
vn 0.0640 0.9838 -0.1870
vn 0.1600 0.8843 -0.4911
vn -0.0443 0.9425 -0.3685
vn 0.1600 0.8843 -0.4911
vn -0.1404 0.8641 -0.5264
vn -0.0443 0.9425 -0.3685
vn -0.1404 0.8641 -0.5264
vn -0.2344 0.9481 -0.1671
vn -0.2382 0.8345 0.5494
vn -0.3718 0.8175 0.4483
vn -0.3177 0.6428 0.7732
vn -0.2382 0.8345 0.5494
vn -0.3177 0.6428 0.7732
vn -0.0963 0.8273 0.6249
vn -0.2382 0.8345 0.5494
vn -0.0963 0.8273 0.6249
vn -0.1445 0.9567 0.2757
vn -0.2382 0.8345 0.5494
vn -0.1445 0.9567 0.2757
vn -0.3718 0.8175 0.4483
vn -0.7231 -0.0680 0.6416
vn -0.7578 0.2124 0.5120
vn -0.7913 -0.1804 0.4267
vn -0.7231 -0.0680 0.6416
vn -0.7913 -0.1804 0.4267
vn -0.6008 -0.2917 0.7678
vn -0.7231 -0.0680 0.6416
vn -0.6008 -0.2917 0.7678
vn -0.5983 0.0299 0.8405
vn -0.7231 -0.0680 0.6416
vn -0.5983 0.0299 0.8405
vn -0.7578 0.2124 0.5120
vn -0.4935 0.3396 -0.8051
vn -0.4822 0.6805 -0.4972
vn -0.1797 0.5367 -0.9079
vn -0.4935 0.3396 -0.8051
vn -0.1797 0.5367 -0.9079
vn -0.3071 0.0262 -1.0302
vn -0.4935 0.3396 -0.8051
vn -0.3071 0.0262 -1.0302
vn -0.7088 0.1475 -0.5645
vn -0.4935 0.3396 -0.8051
vn -0.7088 0.1475 -0.5645
vn -0.4822 0.6805 -0.4972
vn 0.0459 -0.9446 0.3612
vn -0.1404 -0.9395 0.3469
vn 0.0170 -0.9965 0.0896
vn 0.0459 -0.9446 0.3612
vn 0.0170 -0.9965 0.0896
vn 0.2273 -0.9121 0.3370
vn 0.0459 -0.9446 0.3612
vn 0.2273 -0.9121 0.3370
vn 0.0421 -0.8298 0.6225
vn 0.0459 -0.9446 0.3612
vn 0.0421 -0.8298 0.6225
vn -0.1404 -0.9395 0.3469
vn 0.2386 -0.8338 -0.5506
vn 0.1225 -0.7904 -0.6774
vn 0.3975 -0.6645 -0.6829
vn 0.2386 -0.8338 -0.5506
vn 0.3975 -0.6645 -0.6829
vn 0.3452 -0.8520 -0.3967
vn 0.2386 -0.8338 -0.5506
vn 0.3452 -0.8520 -0.3967
vn 0.0650 -0.9442 -0.3645
vn 0.2386 -0.8338 -0.5506
vn 0.0650 -0.9442 -0.3645
vn 0.1225 -0.7904 -0.6774
vn 0.7239 0.0688 -0.6398
vn 0.6063 0.3156 -0.7476
vn 0.7957 0.1552 -0.4251
vn 0.7239 0.0688 -0.6398
vn 0.7957 0.1552 -0.4251
vn 0.7441 -0.2342 -0.5356
vn 0.7239 0.0688 -0.6398
vn 0.7441 -0.2342 -0.5356
vn 0.5973 -0.0096 -0.8424
vn 0.7239 0.0688 -0.6398
vn 0.5973 -0.0096 -0.8424
vn 0.6063 0.3156 -0.7476
vn 0.4929 -0.3389 0.8062
vn 0.2257 -0.1344 1.0601
vn 0.2150 -0.6133 0.8288
vn 0.4929 -0.3389 0.8062
vn 0.2150 -0.6133 0.8288
vn 0.5768 -0.6074 0.4374
vn 0.4929 -0.3389 0.8062
vn 0.5768 -0.6074 0.4374
vn 0.6631 -0.0401 0.6686
vn 0.4929 -0.3389 0.8062
vn 0.6631 -0.0401 0.6686
vn 0.2257 -0.1344 1.0601
vn 0.4595 0.6072 -0.6872
vn 0.4859 0.7332 -0.4511
vn 0.5997 0.4899 -0.6204
vn 0.4595 0.6072 -0.6872
vn 0.5997 0.4899 -0.6204
vn 0.3914 0.4631 -0.8779
vn 0.4595 0.6072 -0.6872
vn 0.3914 0.4631 -0.8779
vn 0.2945 0.6982 -0.7242
vn 0.4595 0.6072 -0.6872
vn 0.2945 0.6982 -0.7242
vn 0.4859 0.7332 -0.4511
vn 0.7485 0.4571 0.1365
vn 0.5403 0.7708 0.0645
vn 0.6359 0.4442 0.5239
vn 0.7485 0.4571 0.1365
vn 0.6359 0.4442 0.5239
vn 0.8482 0.1011 0.0474
vn 0.7485 0.4571 0.1365
vn 0.8482 0.1011 0.0474
vn 0.7111 0.5101 -0.2945
vn 0.7485 0.4571 0.1365
vn 0.7111 0.5101 -0.2945
vn 0.5403 0.7708 0.0645
vn -0.1135 0.6956 0.8009
vn 0.0107 0.8706 0.5523
vn -0.2670 0.7452 0.6793
vn -0.1135 0.6956 0.8009
vn -0.2670 0.7452 0.6793
vn -0.2727 0.4859 0.9321
vn -0.1135 0.6956 0.8009
vn -0.2727 0.4859 0.9321
vn 0.0287 0.6282 0.8723
vn -0.1135 0.6956 0.8009
vn 0.0287 0.6282 0.8723
vn 0.0107 0.8706 0.5523
vn -0.0948 0.9498 -0.3231
vn 0.0699 0.9746 -0.2386
vn 0.0252 0.8446 -0.6027
vn -0.0948 0.9498 -0.3231
vn 0.0252 0.8446 -0.6027
vn -0.2413 0.8926 -0.3807
vn -0.0948 0.9498 -0.3231
vn -0.2413 0.8926 -0.3807
vn -0.1552 0.9833 -0.0054
vn -0.0948 0.9498 -0.3231
vn -0.1552 0.9833 -0.0054
vn 0.0699 0.9746 -0.2386
vn -0.4615 -0.6076 0.6844
vn -0.4916 -0.3587 0.8578
vn -0.5772 -0.5734 0.5590
vn -0.4615 -0.6076 0.6844
vn -0.5772 -0.5734 0.5590
vn -0.3687 -0.8123 0.4649
vn -0.4615 -0.6076 0.6844
vn -0.3687 -0.8123 0.4649
vn -0.3198 -0.6277 0.7878
vn -0.4615 -0.6076 0.6844
vn -0.3198 -0.6277 0.7878
vn -0.4916 -0.3587 0.8578
vn -0.7498 -0.4548 -0.1348
vn -0.8217 -0.1244 -0.2316
vn -0.5693 -0.5820 -0.4911
vn -0.7498 -0.4548 -0.1348
vn -0.5693 -0.5820 -0.4911
vn -0.5771 -0.7381 0.0653
vn -0.7498 -0.4548 -0.1348
vn -0.5771 -0.7381 0.0653
vn -0.7615 -0.3927 0.3091
vn -0.7498 -0.4548 -0.1348
vn -0.7615 -0.3927 0.3091
vn -0.8217 -0.1244 -0.2316
vn 0.1152 -0.6949 -0.8015
vn 0.2900 -0.5072 -0.9090
vn 0.2602 -0.7573 -0.6661
vn 0.1152 -0.6949 -0.8015
vn 0.2602 -0.7573 -0.6661
vn -0.0340 -0.8576 -0.5746
vn 0.1152 -0.6949 -0.8015
vn -0.0340 -0.8576 -0.5746
vn -0.0206 -0.6125 -0.8872
vn 0.1152 -0.6949 -0.8015
vn -0.0206 -0.6125 -0.8872
vn 0.2900 -0.5072 -0.9090
vn 0.0926 -0.9485 0.3290
vn 0.2128 -0.8811 0.4392
vn -0.0957 -0.8722 0.5414
vn 0.0926 -0.9485 0.3290
vn -0.0957 -0.8722 0.5414
vn -0.0457 -0.9846 0.1899
vn 0.0926 -0.9485 0.3290
vn -0.0457 -0.9846 0.1899
vn 0.2363 -0.9600 0.0386
vn 0.0926 -0.9485 0.3290
vn 0.2363 -0.9600 0.0386
vn 0.2128 -0.8811 0.4392
vn 0.1426 0.8624 -0.5463
vn 0.0306 0.7998 -0.6758
vn -0.0369 0.9478 -0.3529
vn 0.1426 0.8624 -0.5463
vn -0.0369 0.9478 -0.3529
vn 0.2529 0.8968 -0.3859
vn 0.1426 0.8624 -0.5463
vn 0.2529 0.8968 -0.3859
vn 0.3210 0.7261 -0.6679
vn 0.1426 0.8624 -0.5463
vn 0.3210 0.7261 -0.6679
vn 0.0306 0.7998 -0.6758
vn 0.4680 0.0932 -0.9646
vn 0.3241 0.1876 -1.0392
vn 0.5467 0.2972 -0.8319
vn 0.4680 0.0932 -0.9646
vn 0.5467 0.2972 -0.8319
vn 0.5925 -0.0030 -0.8482
vn 0.4680 0.0932 -0.9646
vn 0.5925 -0.0030 -0.8482
vn 0.3597 -0.1178 -1.0340
vn 0.4680 0.0932 -0.9646
vn 0.3597 -0.1178 -1.0340
vn 0.3241 0.1876 -1.0392
vn -0.1798 -0.6341 -0.8257
vn -0.0842 -0.3560 -1.0398
vn 0.0726 -0.6926 -0.8100
vn -0.1798 -0.6341 -0.8257
vn 0.0726 -0.6926 -0.8100
vn -0.1418 -0.8590 -0.5360
vn -0.1798 -0.6341 -0.8257
vn -0.1418 -0.8590 -0.5360
vn -0.3906 -0.5665 -0.7474
vn -0.1798 -0.6341 -0.8257
vn -0.3906 -0.5665 -0.7474
vn -0.0842 -0.3560 -1.0398
vn -0.5319 0.7015 -0.3596
vn -0.3499 0.6432 -0.7065
vn -0.6953 0.4678 -0.3488
vn -0.5319 0.7015 -0.3596
vn -0.6953 0.4678 -0.3488
vn -0.5409 0.7749 0.0492
vn -0.5319 0.7015 -0.3596
vn -0.5409 0.7749 0.0492
vn -0.2988 0.9003 -0.2739
vn -0.5319 0.7015 -0.3596
vn -0.2988 0.9003 -0.2739
vn -0.3499 0.6432 -0.7065
vn -0.1431 -0.8643 0.5423
vn -0.1856 -0.9421 0.2992
vn 0.0401 -0.8888 0.5103
vn -0.1431 -0.8643 0.5423
vn 0.0401 -0.8888 0.5103
vn -0.1027 -0.7338 0.7583
vn -0.1431 -0.8643 0.5423
vn -0.1027 -0.7338 0.7583
vn -0.3190 -0.8084 0.5320
vn -0.1431 -0.8643 0.5423
vn -0.3190 -0.8084 0.5320
vn -0.1856 -0.9421 0.2992
vn -0.4677 -0.0933 0.9648
vn -0.5932 -0.0754 0.8429
vn -0.4606 -0.3825 0.8731
vn -0.4677 -0.0933 0.9648
vn -0.4606 -0.3825 0.8731
vn -0.3269 -0.1092 1.0522
vn -0.4677 -0.0933 0.9648
vn -0.3269 -0.1092 1.0522
vn -0.4352 0.2049 0.9674
vn -0.4677 -0.0933 0.9648
vn -0.4352 0.2049 0.9674
vn -0.5932 -0.0754 0.8429
vn 0.1783 0.6350 0.8255
vn 0.1158 0.8571 0.5519
vn -0.0782 0.6766 0.8264
vn 0.1783 0.6350 0.8255
vn -0.0782 0.6766 0.8264
vn 0.1166 0.3510 1.0346
vn 0.1783 0.6350 0.8255
vn 0.1166 0.3510 1.0346
vn 0.3953 0.5875 0.7228
vn 0.1783 0.6350 0.8255
vn 0.3953 0.5875 0.7228
vn 0.1158 0.8571 0.5519
vn 0.5318 -0.6996 0.3641
vn 0.6242 -0.6842 -0.0508
vn 0.6438 -0.4675 0.4826
vn 0.5318 -0.6996 0.3641
vn 0.6438 -0.4675 0.4826
vn 0.2778 -0.7405 0.6446
vn 0.5318 -0.6996 0.3641
vn 0.2778 -0.7405 0.6446
vn 0.3388 -0.9001 0.1840
vn 0.5318 -0.6996 0.3641
vn 0.3388 -0.9001 0.1840
vn 0.6242 -0.6842 -0.0508
vn -0.1083 -0.2829 1.0758
vn 0.0487 -0.1229 1.1111
vn -0.2968 -0.0942 1.0678
vn -0.1083 -0.2829 1.0758
vn -0.2968 -0.0942 1.0678
vn -0.2841 -0.4131 0.9712
vn -0.1083 -0.2829 1.0758
vn -0.2841 -0.4131 0.9712
vn 0.0493 -0.5108 0.9615
vn -0.1083 -0.2829 1.0758
vn 0.0493 -0.5108 0.9615
vn 0.0487 -0.1229 1.1111
vn 0.5074 -0.7269 0.3587
vn 0.5092 -0.5417 0.6364
vn 0.2332 -0.8655 0.4582
vn 0.5074 -0.7269 0.3587
vn 0.2332 -0.8655 0.4582
vn 0.3939 -0.8847 0.0591
vn 0.5074 -0.7269 0.3587
vn 0.3939 -0.8847 0.0591
vn 0.6946 -0.5722 0.0909
vn 0.5074 -0.7269 0.3587
vn 0.6946 -0.5722 0.0909
vn 0.5092 -0.5417 0.6364
vn 0.7287 0.5037 -0.2099
vn 0.7612 0.4446 0.0735
vn 0.7964 0.1886 -0.4026
vn 0.7287 0.5037 -0.2099
vn 0.7964 0.1886 -0.4026
vn 0.6113 0.5600 -0.5099
vn 0.7287 0.5037 -0.2099
vn 0.6113 0.5600 -0.5099
vn 0.5306 0.7784 -0.1442
vn 0.7287 0.5037 -0.2099
vn 0.5306 0.7784 -0.1442
vn 0.7612 0.4446 0.0735
vn -0.0555 0.6858 0.8185
vn 0.1007 0.6231 0.8633
vn 0.0264 0.8747 0.5422
vn -0.0555 0.6858 0.8185
vn 0.0264 0.8747 0.5422
vn -0.2312 0.7313 0.7185
vn -0.0555 0.6858 0.8185
vn -0.2312 0.7313 0.7185
vn -0.1998 0.4543 0.9791
vn -0.0555 0.6858 0.8185
vn -0.1998 0.4543 0.9791
vn 0.1007 0.6231 0.8633
vn 0.1002 0.2862 -1.0756
vn 0.3072 0.3145 -1.0072
vn 0.1910 -0.0325 -1.1073
vn 0.1002 0.2862 -1.0756
vn 0.1910 -0.0325 -1.1073
vn -0.0803 0.2533 -1.0777
vn 0.1002 0.2862 -1.0756
vn -0.0803 0.2533 -1.0777
vn 0.0897 0.5901 -0.9057
vn 0.1002 0.2862 -1.0756
vn 0.0897 0.5901 -0.9057
vn 0.3072 0.3145 -1.0072
vn -0.5102 0.7233 -0.3605
vn -0.3382 0.9066 -0.1460
vn -0.2424 0.7940 -0.5900
vn -0.5102 0.7233 -0.3605
vn -0.2424 0.7940 -0.5900
vn -0.5984 0.5092 -0.5274
vn -0.5102 0.7233 -0.3605
vn -0.5984 0.5092 -0.5274
vn -0.6387 0.6657 0.0271
vn -0.5102 0.7233 -0.3605
vn -0.6387 0.6657 0.0271
vn -0.3382 0.9066 -0.1460
vn -0.7275 -0.5056 0.2117
vn -0.6225 -0.5322 0.5260
vn -0.8123 -0.1795 0.3418
vn -0.7275 -0.5056 0.2117
vn -0.8123 -0.1795 0.3418
vn -0.7424 -0.4824 -0.0927
vn -0.7275 -0.5056 0.2117
vn -0.7424 -0.4824 -0.0927
vn -0.5287 -0.7719 0.2019
vn -0.7275 -0.5056 0.2117
vn -0.5287 -0.7719 0.2019
vn -0.6225 -0.5322 0.5260
vn 0.0607 -0.6833 -0.8209
vn 0.2090 -0.7697 -0.6761
vn -0.1045 -0.8342 -0.5982
vn 0.0607 -0.6833 -0.8209
vn -0.1045 -0.8342 -0.5982
vn -0.0730 -0.5718 -0.9130
vn 0.0607 -0.6833 -0.8209
vn -0.0730 -0.5718 -0.9130
vn 0.2566 -0.5217 -0.9141
vn 0.0607 -0.6833 -0.8209
vn 0.2566 -0.5217 -0.9141
vn 0.2090 -0.7697 -0.6761
vn 0.5326 -0.6287 -0.5574
vn 0.4305 -0.5737 -0.7536
vn 0.6664 -0.4058 -0.5796
vn 0.5326 -0.6287 -0.5574
vn 0.6664 -0.4058 -0.5796
vn 0.5936 -0.6702 -0.3340
vn 0.5326 -0.6287 -0.5574
vn 0.5936 -0.6702 -0.3340
vn 0.3535 -0.7891 -0.5333
vn 0.5326 -0.6287 -0.5574
vn 0.3535 -0.7891 -0.5333
vn 0.4305 -0.5737 -0.7536
vn -0.0439 -0.9507 -0.3412
vn 0.1178 -0.8495 -0.5801
vn 0.0993 -0.9743 -0.2231
vn -0.0439 -0.9507 -0.3412
vn 0.0993 -0.9743 -0.2231
vn -0.1643 -0.9804 -0.0408
vn -0.0439 -0.9507 -0.3412
vn -0.1643 -0.9804 -0.0408
vn -0.1729 -0.8966 -0.4325
vn -0.0439 -0.9507 -0.3412
vn -0.1729 -0.8966 -0.4325
vn 0.1178 -0.8495 -0.5801
vn -0.3957 -0.0328 -0.9719
vn -0.0943 -0.2477 -1.0766
vn -0.5112 -0.3774 -0.7643
vn -0.3957 -0.0328 -0.9719
vn -0.5112 -0.3774 -0.7643
vn -0.5746 0.2377 -0.7540
vn -0.3957 -0.0328 -0.9719
vn -0.5746 0.2377 -0.7540
vn -0.1268 0.2448 -1.0696
vn -0.3957 -0.0328 -0.9719
vn -0.1268 0.2448 -1.0696
vn -0.0943 -0.2477 -1.0766
vn 0.4908 0.2188 -0.9182
vn 0.3836 0.0439 -1.0278
vn 0.3432 0.3348 -0.9801
vn 0.4908 0.2188 -0.9182
vn 0.3432 0.3348 -0.9801
vn 0.5667 0.3879 -0.7561
vn 0.4908 0.2188 -0.9182
vn 0.5667 0.3879 -0.7561
vn 0.6147 0.0944 -0.8134
vn 0.4908 0.2188 -0.9182
vn 0.6147 0.0944 -0.8134
vn 0.3836 0.0439 -1.0278
vn -0.5375 0.6254 0.5541
vn -0.6369 0.5867 0.3988
vn -0.5876 0.3702 0.7401
vn -0.5375 0.6254 0.5541
vn -0.5876 0.3702 0.7401
vn -0.3995 0.6492 0.7001
vn -0.5375 0.6254 0.5541
vn -0.3995 0.6492 0.7001
vn -0.3968 0.8334 0.3629
vn -0.5375 0.6254 0.5541
vn -0.3968 0.8334 0.3629
vn -0.6369 0.5867 0.3988
vn 0.0431 0.9524 0.3355
vn 0.0591 0.9969 0.0372
vn -0.1288 0.9575 0.2846
vn 0.0431 0.9524 0.3355
vn -0.1288 0.9575 0.2846
vn -0.0135 0.8372 0.6156
vn 0.0431 0.9524 0.3355
vn -0.0135 0.8372 0.6156
vn 0.2058 0.9125 0.3595
vn 0.0431 0.9524 0.3355
vn 0.2058 0.9125 0.3595
vn 0.0591 0.9969 0.0372
vn 0.3963 0.0322 0.9716
vn 0.5996 -0.1884 0.7369
vn 0.4714 0.4101 0.7883
vn 0.3963 0.0322 0.9716
vn 0.4714 0.4101 0.7883
vn 0.0807 0.2068 1.0901
vn 0.3963 0.0322 0.9716
vn 0.0807 0.2068 1.0901
vn 0.1526 -0.2831 1.0503
vn 0.3963 0.0322 0.9716
vn 0.1526 -0.2831 1.0503
vn 0.5996 -0.1884 0.7369
vn -0.4913 -0.2187 0.9178
vn -0.5122 -0.4647 0.7656
vn -0.3472 -0.2715 1.0029
vn -0.4913 -0.2187 0.9178
vn -0.3472 -0.2715 1.0029
vn -0.4265 0.0386 1.0004
vn -0.4913 -0.2187 0.9178
vn -0.4265 0.0386 1.0004
vn -0.6151 -0.1613 0.7987
vn -0.4913 -0.2187 0.9178
vn -0.6151 -0.1613 0.7987
vn -0.5122 -0.4647 0.7656
vn 0.1092 0.3585 -1.0466
vn -0.0732 0.3533 -1.0430
vn 0.1361 0.6349 -0.8586
vn 0.1092 0.3585 -1.0466
vn 0.1361 0.6349 -0.8586
vn 0.3140 0.3576 -0.9851
vn 0.1092 0.3585 -1.0466
vn 0.3140 0.3576 -0.9851
vn 0.1554 0.0339 -1.1148
vn 0.1092 0.3585 -1.0466
vn 0.1554 0.0339 -1.1148
vn -0.0732 0.3533 -1.0430
vn -0.0110 -0.6632 -0.8408
vn -0.1414 -0.5144 -0.9375
vn 0.2069 -0.5278 -0.9284
vn -0.0110 -0.6632 -0.8408
vn 0.2069 -0.5278 -0.9284
vn 0.1448 -0.7787 -0.6884
vn -0.0110 -0.6632 -0.8408
vn 0.1448 -0.7787 -0.6884
vn -0.1891 -0.8018 -0.6126
vn -0.0110 -0.6632 -0.8408
vn -0.1891 -0.8018 -0.6126
vn -0.1414 -0.5144 -0.9375
vn -0.7407 -0.4886 0.1713
vn -0.7538 -0.4449 -0.1366
vn -0.5402 -0.7694 0.1437
vn -0.7407 -0.4886 0.1713
vn -0.5402 -0.7694 0.1437
vn -0.6341 -0.5354 0.4954
vn -0.7407 -0.4886 0.1713
vn -0.6341 -0.5354 0.4954
vn -0.8168 -0.1598 0.3350
vn -0.7407 -0.4886 0.1713
vn -0.8168 -0.1598 0.3350
vn -0.7538 -0.4449 -0.1366
vn -0.4085 0.8199 -0.3305
vn -0.5013 0.6584 -0.5008
vn -0.5582 0.7578 0.0098
vn -0.4085 0.8199 -0.3305
vn -0.5582 0.7578 0.0098
vn -0.2512 0.9480 -0.1235
vn -0.4085 0.8199 -0.3305
vn -0.2512 0.9480 -0.1235
vn -0.1536 0.8619 -0.5237
vn -0.4085 0.8199 -0.3305
vn -0.1536 0.8619 -0.5237
vn -0.5013 0.6584 -0.5008
vn -0.1143 -0.3498 1.0498
vn -0.2938 -0.4477 0.9466
vn 0.0159 -0.6033 0.8956
vn -0.1143 -0.3498 1.0498
vn 0.0159 -0.6033 0.8956
vn 0.0478 -0.2356 1.0881
vn -0.1143 -0.3498 1.0498
vn 0.0478 -0.2356 1.0881
vn -0.2868 -0.1246 1.0679
vn -0.1143 -0.3498 1.0498
vn -0.2868 -0.1246 1.0679
vn -0.2938 -0.4477 0.9466
vn 0.0179 0.6648 0.8386
vn -0.1754 0.7296 0.7446
vn -0.1444 0.4349 1.0036
vn 0.0179 0.6648 0.8386
vn -0.1444 0.4349 1.0036
vn 0.1827 0.5832 0.8701
vn 0.0179 0.6648 0.8386
vn 0.1827 0.5832 0.8701
vn 0.0937 0.8629 0.5489
vn 0.0179 0.6648 0.8386
vn 0.0937 0.8629 0.5489
vn -0.1754 0.7296 0.7446
vn 0.7419 0.4864 -0.1702
vn 0.6231 0.5630 -0.4786
vn 0.5433 0.7715 -0.0849
vn 0.7419 0.4864 -0.1702
vn 0.5433 0.7715 -0.0849
vn 0.7721 0.4064 0.1161
vn 0.7419 0.4864 -0.1702
vn 0.7721 0.4064 0.1161
vn 0.8009 0.1758 -0.3937
vn 0.7419 0.4864 -0.1702
vn 0.8009 0.1758 -0.3937
vn 0.6231 0.5630 -0.4786
vn 0.4054 -0.8232 0.3272
vn 0.2927 -0.9372 0.0586
vn 0.6006 -0.7027 0.0955
vn 0.4054 -0.8232 0.3272
vn 0.6006 -0.7027 0.0955
vn 0.4359 -0.6700 0.5805
vn 0.4054 -0.8232 0.3272
vn 0.4359 -0.6700 0.5805
vn 0.1483 -0.9090 0.4172
vn 0.4054 -0.8232 0.3272
vn 0.1483 -0.9090 0.4172
vn 0.2927 -0.9372 0.0586
vn 0.6253 0.1154 -0.7956
vn 0.3638 -0.4211 -0.9236
vn 0.2640 0.1014 -1.0799
vn 0.6253 0.1154 -0.7956
vn 0.7922 -0.1031 -0.4588
vn 0.3638 -0.4211 -0.9236
vn 0.6253 0.1154 -0.7956
vn 0.4689 0.6797 -0.5775
vn 0.7922 -0.1031 -0.4588
vn 0.6253 0.1154 -0.7956
vn 0.2640 0.1014 -1.0799
vn 0.4689 0.6797 -0.5775
vn -0.6253 -0.1154 0.7956
vn -0.2640 -0.1014 1.0799
vn -0.3638 0.4211 0.9236
vn -0.6253 -0.1154 0.7956
vn -0.3638 0.4211 0.9236
vn -0.7922 0.1031 0.4588
vn -0.6253 -0.1154 0.7956
vn -0.7922 0.1031 0.4588
vn -0.4689 -0.6797 0.5775
vn -0.6253 -0.1154 0.7956
vn -0.4689 -0.6797 0.5775
vn -0.2640 -0.1014 1.0799
vn -0.2936 0.2652 1.0314
vn 0.0895 0.5846 0.8992
vn -0.3607 0.7671 0.5662
vn -0.2936 0.2652 1.0314
vn -0.0106 -0.1308 1.1154
vn 0.0895 0.5846 0.8992
vn -0.2936 0.2652 1.0314
vn -0.6010 0.2559 0.7844
vn -0.0106 -0.1308 1.1154
vn -0.2936 0.2652 1.0314
vn -0.3607 0.7671 0.5662
vn -0.6010 0.2559 0.7844
vn 0.2936 -0.2652 -1.0314
vn 0.3607 -0.7671 -0.5662
vn -0.0895 -0.5846 -0.8992
vn 0.2936 -0.2652 -1.0314
vn -0.0895 -0.5846 -0.8992
vn 0.0106 0.1308 -1.1154
vn 0.2936 -0.2652 -1.0314
vn 0.0106 0.1308 -1.1154
vn 0.6010 -0.2559 -0.7844
vn 0.2936 -0.2652 -1.0314
vn 0.6010 -0.2559 -0.7844
vn 0.3607 -0.7671 -0.5662
vn -0.6345 -0.0089 0.7939
vn -0.2846 -0.0463 1.0768
vn -0.3193 0.4936 0.9032
vn -0.6345 -0.0089 0.7939
vn -0.5035 -0.6277 0.6045
vn -0.2846 -0.0463 1.0768
vn -0.6345 -0.0089 0.7939
vn -0.7778 0.1891 0.4667
vn -0.5035 -0.6277 0.6045
vn -0.6345 -0.0089 0.7939
vn -0.3193 0.4936 0.9032
vn -0.7778 0.1891 0.4667
vn 0.6345 0.0089 -0.7939
vn 0.3193 -0.4936 -0.9032
vn 0.2846 0.0463 -1.0768
vn 0.6345 0.0089 -0.7939
vn 0.2846 0.0463 -1.0768
vn 0.5035 0.6277 -0.6045
vn 0.6345 0.0089 -0.7939
vn 0.5035 0.6277 -0.6045
vn 0.7778 -0.1891 -0.4667
vn 0.6345 0.0089 -0.7939
vn 0.7778 -0.1891 -0.4667
vn 0.3193 -0.4936 -0.9032
vn -0.6488 0.6523 0.0357
vn -0.1608 0.9738 0.1541
vn -0.2025 0.8190 -0.5753
vn -0.6488 0.6523 0.0357
vn -0.4144 0.6716 0.6564
vn -0.1608 0.9738 0.1541
vn -0.6488 0.6523 0.0357
vn -0.8051 0.2599 -0.1959
vn -0.4144 0.6716 0.6564
vn -0.6488 0.6523 0.0357
vn -0.2025 0.8190 -0.5753
vn -0.8051 0.2599 -0.1959
vn 0.6488 -0.6523 -0.0357
vn 0.2025 -0.8190 0.5753
vn 0.1608 -0.9738 -0.1541
vn 0.6488 -0.6523 -0.0357
vn 0.1608 -0.9738 -0.1541
vn 0.4144 -0.6716 -0.6564
vn 0.6488 -0.6523 -0.0357
vn 0.4144 -0.6716 -0.6564
vn 0.8051 -0.2599 0.1959
vn 0.6488 -0.6523 -0.0357
vn 0.8051 -0.2599 0.1959
vn 0.2025 -0.8190 0.5753
vn 0.3028 0.9302 0.0911
vn 0.6285 0.6117 -0.3700
vn 0.1568 0.8776 -0.5078
vn 0.3028 0.9302 0.0911
vn 0.4672 0.7229 0.4476
vn 0.6285 0.6117 -0.3700
vn 0.3028 0.9302 0.0911
vn -0.1052 0.9923 0.0224
vn 0.4672 0.7229 0.4476
vn 0.3028 0.9302 0.0911
vn 0.1568 0.8776 -0.5078
vn -0.1052 0.9923 0.0224
vn -0.3028 -0.9302 -0.0911
vn -0.1568 -0.8776 0.5078
vn -0.6285 -0.6117 0.3700
vn -0.3028 -0.9302 -0.0911
vn -0.6285 -0.6117 0.3700
vn -0.4672 -0.7229 -0.4476
vn -0.3028 -0.9302 -0.0911
vn -0.4672 -0.7229 -0.4476
vn 0.1052 -0.9923 -0.0224
vn -0.3028 -0.9302 -0.0911
vn 0.1052 -0.9923 -0.0224
vn -0.1568 -0.8776 0.5078
vn -0.1417 0.2624 -1.0602
vn -0.0689 0.8898 -0.5008
vn 0.3418 0.5596 -0.8377
vn -0.1417 0.2624 -1.0602
vn 0.3418 0.5596 -0.8377
vn 0.3375 -0.1349 -1.0431
vn -0.1417 0.2624 -1.0602
vn 0.3375 -0.1349 -1.0431
vn -0.5152 0.1955 -0.8388
vn -0.1417 0.2624 -1.0602
vn -0.5152 0.1955 -0.8388
vn -0.0689 0.8898 -0.5008
vn 0.1417 -0.2624 1.0602
vn -0.3418 -0.5596 0.8377
vn 0.0689 -0.8898 0.5008
vn 0.1417 -0.2624 1.0602
vn -0.3375 0.1349 1.0431
vn -0.3418 -0.5596 0.8377
vn 0.1417 -0.2624 1.0602
vn 0.5152 -0.1955 0.8388
vn -0.3375 0.1349 1.0431
vn 0.1417 -0.2624 1.0602
vn 0.0689 -0.8898 0.5008
vn 0.5152 -0.1955 0.8388
vn 0.5826 0.1212 0.7764
vn -0.1315 0.1663 1.1034
vn 0.1014 -0.5484 0.9246
vn 0.5826 0.1212 0.7764
vn 0.1014 -0.5484 0.9246
vn 0.8188 -0.2671 0.0813
vn 0.5826 0.1212 0.7764
vn 0.8188 -0.2671 0.0813
vn 0.2772 0.8190 0.5154
vn 0.5826 0.1212 0.7764
vn 0.2772 0.8190 0.5154
vn -0.1315 0.1663 1.1034
vn -0.5826 -0.1212 -0.7764
vn -0.1014 0.5484 -0.9246
vn 0.1315 -0.1663 -1.1034
vn -0.5826 -0.1212 -0.7764
vn -0.8188 0.2671 -0.0813
vn -0.1014 0.5484 -0.9246
vn -0.5826 -0.1212 -0.7764
vn -0.2772 -0.8190 -0.5154
vn -0.8188 0.2671 -0.0813
vn -0.5826 -0.1212 -0.7764
vn 0.1315 -0.1663 -1.1034
vn -0.2772 -0.8190 -0.5154
vn 0.1557 -0.4497 -0.9929
vn 0.5636 -0.3993 -0.7523
vn 0.3709 -0.7817 -0.5273
vn 0.1557 -0.4497 -0.9929
vn 0.3709 -0.7817 -0.5273
vn -0.2098 -0.6627 -0.7828
vn 0.1557 -0.4497 -0.9929
vn -0.2098 -0.6627 -0.7828
vn 0.1324 0.1200 -1.1109
vn 0.1557 -0.4497 -0.9929
vn 0.1324 0.1200 -1.1109
vn 0.5636 -0.3993 -0.7523
vn -0.1557 0.4497 0.9929
vn -0.3709 0.7817 0.5273
vn -0.5636 0.3993 0.7523
vn -0.1557 0.4497 0.9929
vn 0.2098 0.6627 0.7828
vn -0.3709 0.7817 0.5273
vn -0.1557 0.4497 0.9929
vn -0.1324 -0.1200 1.1109
vn 0.2098 0.6627 0.7828
vn -0.1557 0.4497 0.9929
vn -0.5636 0.3993 0.7523
vn -0.1324 -0.1200 1.1109
vn -0.5920 -0.0229 -0.7752
vn -0.0497 0.6173 -0.8792
vn 0.1059 -0.0932 -1.1175
vn -0.5920 -0.0229 -0.7752
vn 0.1059 -0.0932 -1.1175
vn -0.3334 -0.7803 -0.5297
vn -0.5920 -0.0229 -0.7752
vn -0.3334 -0.7803 -0.5297
vn -0.7852 0.3771 -0.0956
vn -0.5920 -0.0229 -0.7752
vn -0.7852 0.3771 -0.0956
vn -0.0497 0.6173 -0.8792
vn 0.5920 0.0229 0.7752
vn -0.1059 0.0932 1.1175
vn 0.0497 -0.6173 0.8792
vn 0.5920 0.0229 0.7752
vn 0.3334 0.7803 0.5297
vn -0.1059 0.0932 1.1175
vn 0.5920 0.0229 0.7752
vn 0.7852 -0.3771 0.0956
vn 0.3334 0.7803 0.5297
vn 0.5920 0.0229 0.7752
vn 0.0497 -0.6173 0.8792
vn 0.7852 -0.3771 0.0956
# 1146 vertex normals

vt 0.0151 0.3799 0.0000
vt 0.3879 0.3799 0.0000
vt 0.3879 0.5825 0.0000
vt 0.0151 0.5825 0.0000
vt 0.0151 0.4627 0.0000
vt 0.1332 0.4606 0.0000
vt 0.0151 0.3799 0.0000
vt 0.3879 0.3799 0.0000
vt 0.3879 0.5825 0.0000
vt 0.0151 0.5825 0.0000
vt 0.0151 0.4627 0.0000
vt 0.1332 0.4606 0.0000
vt 0.0151 0.3799 0.0000
vt 0.3879 0.3799 0.0000
vt 0.3879 0.5825 0.0000
vt 0.0151 0.5825 0.0000
vt 0.0151 0.4627 0.0000
vt 0.1332 0.4606 0.0000
vt 0.0151 0.3799 0.0000
vt 0.3879 0.3799 0.0000
vt 0.3879 0.5825 0.0000
vt 0.0151 0.5825 0.0000
vt 0.0151 0.4627 0.0000
vt 0.1332 0.4606 0.0000
vt 0.0151 0.3799 0.0000
vt 0.3879 0.3799 0.0000
vt 0.3879 0.5825 0.0000
vt 0.0151 0.5825 0.0000
vt 0.0151 0.4627 0.0000
vt 0.1332 0.4606 0.0000
vt 0.0151 0.3799 0.0000
vt 0.3879 0.3799 0.0000
vt 0.3879 0.5825 0.0000
vt 0.0151 0.5825 0.0000
vt 0.0151 0.4627 0.0000
vt 0.1332 0.4606 0.0000
vt 0.5152 0.6211 0.0000
vt 0.6081 0.5282 0.0000
vt 0.6081 0.7141 0.0000
vt 0.4223 0.7141 0.0000
vt 0.4223 0.5282 0.0000
vt 0.8855 0.8561 0.0000
vt 0.9267 0.8149 0.0000
vt 0.9267 0.8973 0.0000
vt 0.8443 0.8973 0.0000
vt 0.8443 0.8149 0.0000
vt 0.8855 0.8561 0.0000
vt 0.9267 0.8149 0.0000
vt 0.9267 0.8973 0.0000
vt 0.8443 0.8973 0.0000
vt 0.8443 0.8149 0.0000
vt 0.8855 0.8561 0.0000
vt 0.9267 0.8149 0.0000
vt 0.9267 0.8973 0.0000
vt 0.8443 0.8973 0.0000
vt 0.8443 0.8149 0.0000
vt 0.8855 0.8561 0.0000
vt 0.9267 0.8149 0.0000
vt 0.9267 0.8973 0.0000
vt 0.8443 0.8973 0.0000
vt 0.8443 0.8149 0.0000
vt 0.8855 0.8561 0.0000
vt 0.9267 0.8149 0.0000
vt 0.9267 0.8973 0.0000
vt 0.8443 0.8973 0.0000
vt 0.8443 0.8149 0.0000
vt 0.8855 0.8561 0.0000
vt 0.9267 0.8149 0.0000
vt 0.9267 0.8973 0.0000
vt 0.8443 0.8973 0.0000
vt 0.8443 0.8149 0.0000
vt 0.8855 0.8561 0.0000
vt 0.9267 0.8149 0.0000
vt 0.9267 0.8973 0.0000
vt 0.8443 0.8973 0.0000
vt 0.8443 0.8149 0.0000
vt 0.8855 0.8561 0.0000
vt 0.9267 0.8149 0.0000
vt 0.9267 0.8973 0.0000
vt 0.8443 0.8973 0.0000
vt 0.8443 0.8149 0.0000
vt 0.8855 0.8561 0.0000
vt 0.9267 0.8149 0.0000
vt 0.9267 0.8973 0.0000
vt 0.8443 0.8973 0.0000
vt 0.8443 0.8149 0.0000
vt 0.8855 0.8561 0.0000
vt 0.9267 0.8149 0.0000
vt 0.9267 0.8973 0.0000
vt 0.8443 0.8973 0.0000
vt 0.8443 0.8149 0.0000
vt 0.8855 0.8561 0.0000
vt 0.9267 0.8149 0.0000
vt 0.9267 0.8973 0.0000
vt 0.8443 0.8973 0.0000
vt 0.8443 0.8149 0.0000
vt 0.8855 0.8561 0.0000
vt 0.9267 0.8149 0.0000
vt 0.9267 0.8973 0.0000
vt 0.8443 0.8973 0.0000
vt 0.8443 0.8149 0.0000
vt 0.8855 0.8561 0.0000
vt 0.9267 0.8149 0.0000
vt 0.9267 0.8973 0.0000
vt 0.8443 0.8973 0.0000
vt 0.8443 0.8149 0.0000
vt 0.8855 0.8561 0.0000
vt 0.9267 0.8149 0.0000
vt 0.9267 0.8973 0.0000
vt 0.8443 0.8973 0.0000
vt 0.8443 0.8149 0.0000
vt 0.8855 0.8561 0.0000
vt 0.9267 0.8149 0.0000
vt 0.9267 0.8973 0.0000
vt 0.8443 0.8973 0.0000
vt 0.8443 0.8149 0.0000
vt 0.8855 0.8561 0.0000
vt 0.9267 0.8149 0.0000
vt 0.9267 0.8973 0.0000
vt 0.8443 0.8973 0.0000
vt 0.8443 0.8149 0.0000
vt 0.8855 0.8561 0.0000
vt 0.9267 0.8149 0.0000
vt 0.9267 0.8973 0.0000
vt 0.8443 0.8973 0.0000
vt 0.8443 0.8149 0.0000
vt 0.8855 0.8561 0.0000
vt 0.9267 0.8149 0.0000
vt 0.9267 0.8973 0.0000
vt 0.8443 0.8973 0.0000
vt 0.8443 0.8149 0.0000
# 131 texture coords

g arbuste_03
usemtl Material__3
s 1
f 6/6/1 2/2/2 3/3/3 4/4/4 
f 6/6/5 4/4/6 5/5/7 
f 5/5/8 1/1/9 2/2/10 6/6/11 
f 12/12/12 11/11/13 10/10/14 9/9/15 
f 12/12/16 9/9/17 8/8/18 
f 11/11/19 12/12/20 8/8/21 7/7/22 
f 18/18/23 14/14/24 15/15/25 16/16/26 
f 18/18/27 16/16/28 17/17/29 
f 17/17/30 13/13/31 14/14/32 18/18/33 
f 24/24/34 23/23/35 22/22/36 21/21/37 
f 24/24/38 21/21/39 20/20/40 
f 23/23/41 24/24/42 20/20/43 19/19/44 
f 30/30/45 29/29/46 28/28/47 27/27/48 
f 30/30/49 27/27/50 26/26/51 
f 29/29/52 30/30/53 26/26/54 25/25/55 
f 36/36/56 32/32/57 33/33/58 34/34/59 
f 36/36/60 34/34/61 35/35/62 
f 35/35/63 31/31/64 32/32/65 36/36/66 
f 37/37/67 38/38/68 39/39/69 
f 37/37/70 39/39/71 40/40/72 
f 37/37/73 40/40/74 41/41/75 
f 37/37/76 41/41/77 38/38/78 
f 42/37/79 43/38/80 44/39/81 
f 42/37/82 44/39/83 45/40/84 
f 42/37/85 45/40/86 46/41/87 
f 42/37/88 46/41/89 43/38/90 
f 47/37/91 48/38/92 49/39/93 
f 47/37/94 49/39/95 50/40/96 
f 47/37/97 50/40/98 51/41/99 
f 47/37/100 51/41/101 48/38/102 
f 52/37/103 53/38/104 54/39/105 
f 52/37/106 54/39/107 55/40/108 
f 52/37/109 55/40/110 56/41/111 
f 52/37/112 56/41/113 53/38/114 
f 57/37/115 58/38/116 59/39/117 
f 57/37/118 59/39/119 60/40/120 
f 57/37/121 60/40/122 61/41/123 
f 57/37/124 61/41/125 58/38/126 
f 62/37/127 63/38/128 64/39/129 
f 62/37/130 64/39/131 65/40/132 
f 62/37/133 65/40/134 66/41/135 
f 62/37/136 66/41/137 63/38/138 
f 67/37/139 68/38/140 69/39/141 
f 67/37/142 69/39/143 70/40/144 
f 67/37/145 70/40/146 71/41/147 
f 67/37/148 71/41/149 68/38/150 
f 72/37/151 73/38/152 74/39/153 
f 72/37/154 74/39/155 75/40/156 
f 72/37/157 75/40/158 76/41/159 
f 72/37/160 76/41/161 73/38/162 
f 77/37/163 78/38/164 79/39/165 
f 77/37/166 79/39/167 80/40/168 
f 77/37/169 80/40/170 81/41/171 
f 77/37/172 81/41/173 78/38/174 
f 82/37/175 83/38/176 84/39/177 
f 82/37/178 84/39/179 85/40/180 
f 82/37/181 85/40/182 86/41/183 
f 82/37/184 86/41/185 83/38/186 
f 87/37/187 88/38/188 89/39/189 
f 87/37/190 89/39/191 90/40/192 
f 87/37/193 90/40/194 91/41/195 
f 87/37/196 91/41/197 88/38/198 
f 92/37/199 93/38/200 94/39/201 
f 92/37/202 94/39/203 95/40/204 
f 92/37/205 95/40/206 96/41/207 
f 92/37/208 96/41/209 93/38/210 
f 97/37/211 98/38/212 99/39/213 
f 97/37/214 99/39/215 100/40/216 
f 97/37/217 100/40/218 101/41/219 
f 97/37/220 101/41/221 98/38/222 
f 102/37/223 103/38/224 104/39/225 
f 102/37/226 104/39/227 105/40/228 
f 102/37/229 105/40/230 106/41/231 
f 102/37/232 106/41/233 103/38/234 
f 107/37/235 108/38/236 109/39/237 
f 107/37/238 109/39/239 110/40/240 
f 107/37/241 110/40/242 111/41/243 
f 107/37/244 111/41/245 108/38/246 
f 112/37/247 113/38/248 114/39/249 
f 112/37/250 114/39/251 115/40/252 
f 112/37/253 115/40/254 116/41/255 
f 112/37/256 116/41/257 113/38/258 
f 117/37/259 118/38/260 119/39/261 
f 117/37/262 119/39/263 120/40/264 
f 117/37/265 120/40/266 121/41/267 
f 117/37/268 121/41/269 118/38/270 
f 122/37/271 123/38/272 124/39/273 
f 122/37/274 124/39/275 125/40/276 
f 122/37/277 125/40/278 126/41/279 
f 122/37/280 126/41/281 123/38/282 
f 127/37/283 128/38/284 129/39/285 
f 127/37/286 129/39/287 130/40/288 
f 127/37/289 130/40/290 131/41/291 
f 127/37/292 131/41/293 128/38/294 
f 132/37/295 133/38/296 134/39/297 
f 132/37/298 134/39/299 135/40/300 
f 132/37/301 135/40/302 136/41/303 
f 132/37/304 136/41/305 133/38/306 
f 137/37/307 138/38/308 139/39/309 
f 137/37/310 139/39/311 140/40/312 
f 137/37/313 140/40/314 141/41/315 
f 137/37/316 141/41/317 138/38/318 
f 142/37/319 143/38/320 144/39/321 
f 142/37/322 144/39/323 145/40/324 
f 142/37/325 145/40/326 146/41/327 
f 142/37/328 146/41/329 143/38/330 
f 147/37/331 148/38/332 149/39/333 
f 147/37/334 149/39/335 150/40/336 
f 147/37/337 150/40/338 151/41/339 
f 147/37/340 151/41/341 148/38/342 
f 152/37/343 153/38/344 154/39/345 
f 152/37/346 154/39/347 155/40/348 
f 152/37/349 155/40/350 156/41/351 
f 152/37/352 156/41/353 153/38/354 
f 157/37/355 158/38/356 159/39/357 
f 157/37/358 159/39/359 160/40/360 
f 157/37/361 160/40/362 161/41/363 
f 157/37/364 161/41/365 158/38/366 
f 162/37/367 163/38/368 164/39/369 
f 162/37/370 164/39/371 165/40/372 
f 162/37/373 165/40/374 166/41/375 
f 162/37/376 166/41/377 163/38/378 
f 167/37/379 168/38/380 169/39/381 
f 167/37/382 169/39/383 170/40/384 
f 167/37/385 170/40/386 171/41/387 
f 167/37/388 171/41/389 168/38/390 
f 172/37/391 173/38/392 174/39/393 
f 172/37/394 174/39/395 175/40/396 
f 172/37/397 175/40/398 176/41/399 
f 172/37/400 176/41/401 173/38/402 
f 177/37/403 178/38/404 179/39/405 
f 177/37/406 179/39/407 180/40/408 
f 177/37/409 180/40/410 181/41/411 
f 177/37/412 181/41/413 178/38/414 
f 182/37/415 183/38/416 184/39/417 
f 182/37/418 184/39/419 185/40/420 
f 182/37/421 185/40/422 186/41/423 
f 182/37/424 186/41/425 183/38/426 
f 187/37/427 188/38/428 189/39/429 
f 187/37/430 189/39/431 190/40/432 
f 187/37/433 190/40/434 191/41/435 
f 187/37/436 191/41/437 188/38/438 
f 192/37/439 193/38/440 194/39/441 
f 192/37/442 194/39/443 195/40/444 
f 192/37/445 195/40/446 196/41/447 
f 192/37/448 196/41/449 193/38/450 
f 197/37/451 198/38/452 199/39/453 
f 197/37/454 199/39/455 200/40/456 
f 197/37/457 200/40/458 201/41/459 
f 197/37/460 201/41/461 198/38/462 
f 202/37/463 203/38/464 204/39/465 
f 202/37/466 204/39/467 205/40/468 
f 202/37/469 205/40/470 206/41/471 
f 202/37/472 206/41/473 203/38/474 
f 207/37/475 208/38/476 209/39/477 
f 207/37/478 209/39/479 210/40/480 
f 207/37/481 210/40/482 211/41/483 
f 207/37/484 211/41/485 208/38/486 
f 212/37/487 213/38/488 214/39/489 
f 212/37/490 214/39/491 215/40/492 
f 212/37/493 215/40/494 216/41/495 
f 212/37/496 216/41/497 213/38/498 
f 217/37/499 218/38/500 219/39/501 
f 217/37/502 219/39/503 220/40/504 
f 217/37/505 220/40/506 221/41/507 
f 217/37/508 221/41/509 218/38/510 
f 222/37/511 223/38/512 224/39/513 
f 222/37/514 224/39/515 225/40/516 
f 222/37/517 225/40/518 226/41/519 
f 222/37/520 226/41/521 223/38/522 
f 227/37/523 228/38/524 229/39/525 
f 227/37/526 229/39/527 230/40/528 
f 227/37/529 230/40/530 231/41/531 
f 227/37/532 231/41/533 228/38/534 
f 232/37/535 233/38/536 234/39/537 
f 232/37/538 234/39/539 235/40/540 
f 232/37/541 235/40/542 236/41/543 
f 232/37/544 236/41/545 233/38/546 
f 237/37/547 238/38/548 239/39/549 
f 237/37/550 239/39/551 240/40/552 
f 237/37/553 240/40/554 241/41/555 
f 237/37/556 241/41/557 238/38/558 
f 242/37/559 243/38/560 244/39/561 
f 242/37/562 244/39/563 245/40/564 
f 242/37/565 245/40/566 246/41/567 
f 242/37/568 246/41/569 243/38/570 
f 247/37/571 248/38/572 249/39/573 
f 247/37/574 249/39/575 250/40/576 
f 247/37/577 250/40/578 251/41/579 
f 247/37/580 251/41/581 248/38/582 
f 252/37/583 253/38/584 254/39/585 
f 252/37/586 254/39/587 255/40/588 
f 252/37/589 255/40/590 256/41/591 
f 252/37/592 256/41/593 253/38/594 
f 257/37/595 258/38/596 259/39/597 
f 257/37/598 259/39/599 260/40/600 
f 257/37/601 260/40/602 261/41/603 
f 257/37/604 261/41/605 258/38/606 
f 262/37/607 263/38/608 264/39/609 
f 262/37/610 264/39/611 265/40/612 
f 262/37/613 265/40/614 266/41/615 
f 262/37/616 266/41/617 263/38/618 
f 267/37/619 268/38/620 269/39/621 
f 267/37/622 269/39/623 270/40/624 
f 267/37/625 270/40/626 271/41/627 
f 267/37/628 271/41/629 268/38/630 
f 272/37/631 273/38/632 274/39/633 
f 272/37/634 274/39/635 275/40/636 
f 272/37/637 275/40/638 276/41/639 
f 272/37/640 276/41/641 273/38/642 
f 277/37/643 278/38/644 279/39/645 
f 277/37/646 279/39/647 280/40/648 
f 277/37/649 280/40/650 281/41/651 
f 277/37/652 281/41/653 278/38/654 
f 282/37/655 283/38/656 284/39/657 
f 282/37/658 284/39/659 285/40/660 
f 282/37/661 285/40/662 286/41/663 
f 282/37/664 286/41/665 283/38/666 
f 287/37/667 288/38/668 289/39/669 
f 287/37/670 289/39/671 290/40/672 
f 287/37/673 290/40/674 291/41/675 
f 287/37/676 291/41/677 288/38/678 
f 292/37/679 293/38/680 294/39/681 
f 292/37/682 294/39/683 295/40/684 
f 292/37/685 295/40/686 296/41/687 
f 292/37/688 296/41/689 293/38/690 
f 297/37/691 298/38/692 299/39/693 
f 297/37/694 299/39/695 300/40/696 
f 297/37/697 300/40/698 301/41/699 
f 297/37/700 301/41/701 298/38/702 
f 302/37/703 303/38/704 304/39/705 
f 302/37/706 304/39/707 305/40/708 
f 302/37/709 305/40/710 306/41/711 
f 302/37/712 306/41/713 303/38/714 
f 307/37/715 308/38/716 309/39/717 
f 307/37/718 309/39/719 310/40/720 
f 307/37/721 310/40/722 311/41/723 
f 307/37/724 311/41/725 308/38/726 
f 312/37/727 313/38/728 314/39/729 
f 312/37/730 314/39/731 315/40/732 
f 312/37/733 315/40/734 316/41/735 
f 312/37/736 316/41/737 313/38/738 
f 317/37/739 318/38/740 319/39/741 
f 317/37/742 319/39/743 320/40/744 
f 317/37/745 320/40/746 321/41/747 
f 317/37/748 321/41/749 318/38/750 
f 322/37/751 323/38/752 324/39/753 
f 322/37/754 324/39/755 325/40/756 
f 322/37/757 325/40/758 326/41/759 
f 322/37/760 326/41/761 323/38/762 
f 327/37/763 328/38/764 329/39/765 
f 327/37/766 329/39/767 330/40/768 
f 327/37/769 330/40/770 331/41/771 
f 327/37/772 331/41/773 328/38/774 
f 332/37/775 333/38/776 334/39/777 
f 332/37/778 334/39/779 335/40/780 
f 332/37/781 335/40/782 336/41/783 
f 332/37/784 336/41/785 333/38/786 
f 337/37/787 338/38/788 339/39/789 
f 337/37/790 339/39/791 340/40/792 
f 337/37/793 340/40/794 341/41/795 
f 337/37/796 341/41/797 338/38/798 
f 342/37/799 343/38/800 344/39/801 
f 342/37/802 344/39/803 345/40/804 
f 342/37/805 345/40/806 346/41/807 
f 342/37/808 346/41/809 343/38/810 
f 347/37/811 348/38/812 349/39/813 
f 347/37/814 349/39/815 350/40/816 
f 347/37/817 350/40/818 351/41/819 
f 347/37/820 351/41/821 348/38/822 
f 352/37/823 353/38/824 354/39/825 
f 352/37/826 354/39/827 355/40/828 
f 352/37/829 355/40/830 356/41/831 
f 352/37/832 356/41/833 353/38/834 
f 357/37/835 358/38/836 359/39/837 
f 357/37/838 359/39/839 360/40/840 
f 357/37/841 360/40/842 361/41/843 
f 357/37/844 361/41/845 358/38/846 
f 362/37/847 363/38/848 364/39/849 
f 362/37/850 364/39/851 365/40/852 
f 362/37/853 365/40/854 366/41/855 
f 362/37/856 366/41/857 363/38/858 
f 367/37/859 368/38/860 369/39/861 
f 367/37/862 369/39/863 370/40/864 
f 367/37/865 370/40/866 371/41/867 
f 367/37/868 371/41/869 368/38/870 
f 372/37/871 373/38/872 374/39/873 
f 372/37/874 374/39/875 375/40/876 
f 372/37/877 375/40/878 376/41/879 
f 372/37/880 376/41/881 373/38/882 
f 377/37/883 378/38/884 379/39/885 
f 377/37/886 379/39/887 380/40/888 
f 377/37/889 380/40/890 381/41/891 
f 377/37/892 381/41/893 378/38/894 
f 382/37/895 383/38/896 384/39/897 
f 382/37/898 384/39/899 385/40/900 
f 382/37/901 385/40/902 386/41/903 
f 382/37/904 386/41/905 383/38/906 
f 387/37/907 388/38/908 389/39/909 
f 387/37/910 389/39/911 390/40/912 
f 387/37/913 390/40/914 391/41/915 
f 387/37/916 391/41/917 388/38/918 
f 392/37/919 393/38/920 394/39/921 
f 392/37/922 394/39/923 395/40/924 
f 392/37/925 395/40/926 396/41/927 
f 392/37/928 396/41/929 393/38/930 
f 397/42/931 399/44/932 398/43/933 
f 397/42/934 400/45/935 399/44/936 
f 397/42/937 401/46/938 400/45/939 
f 397/42/940 398/43/941 401/46/942 
f 402/47/943 403/48/944 404/49/945 
f 402/47/946 404/49/947 405/50/948 
f 402/47/949 405/50/950 406/51/951 
f 402/47/952 406/51/953 403/48/954 
f 407/52/955 409/54/956 408/53/957 
f 407/52/958 410/55/959 409/54/960 
f 407/52/961 411/56/962 410/55/963 
f 407/52/964 408/53/965 411/56/966 
f 412/57/967 413/58/968 414/59/969 
f 412/57/970 414/59/971 415/60/972 
f 412/57/973 415/60/974 416/61/975 
f 412/57/976 416/61/977 413/58/978 
f 417/62/979 419/64/980 418/63/981 
f 417/62/982 420/65/983 419/64/984 
f 417/62/985 421/66/986 420/65/987 
f 417/62/988 418/63/989 421/66/990 
f 422/67/991 423/68/992 424/69/993 
f 422/67/994 424/69/995 425/70/996 
f 422/67/997 425/70/998 426/71/999 
f 422/67/1000 426/71/1001 423/68/1002 
f 427/72/1003 429/74/1004 428/73/1005 
f 427/72/1006 430/75/1007 429/74/1008 
f 427/72/1009 431/76/1010 430/75/1011 
f 427/72/1012 428/73/1013 431/76/1014 
f 432/77/1015 433/78/1016 434/79/1017 
f 432/77/1018 434/79/1019 435/80/1020 
f 432/77/1021 435/80/1022 436/81/1023 
f 432/77/1024 436/81/1025 433/78/1026 
f 437/82/1027 439/84/1028 438/83/1029 
f 437/82/1030 440/85/1031 439/84/1032 
f 437/82/1033 441/86/1034 440/85/1035 
f 437/82/1036 438/83/1037 441/86/1038 
f 442/87/1039 443/88/1040 444/89/1041 
f 442/87/1042 444/89/1043 445/90/1044 
f 442/87/1045 445/90/1046 446/91/1047 
f 442/87/1048 446/91/1049 443/88/1050 
f 447/92/1051 448/93/1052 449/94/1053 
f 447/92/1054 449/94/1055 450/95/1056 
f 447/92/1057 450/95/1058 451/96/1059 
f 447/92/1060 451/96/1061 448/93/1062 
f 452/97/1063 454/99/1064 453/98/1065 
f 452/97/1066 455/100/1067 454/99/1068 
f 452/97/1069 456/101/1070 455/100/1071 
f 452/97/1072 453/98/1073 456/101/1074 
f 457/102/1075 458/103/1076 459/104/1077 
f 457/102/1078 459/104/1079 460/105/1080 
f 457/102/1081 460/105/1082 461/106/1083 
f 457/102/1084 461/106/1085 458/103/1086 
f 462/107/1087 464/109/1088 463/108/1089 
f 462/107/1090 465/110/1091 464/109/1092 
f 462/107/1093 466/111/1094 465/110/1095 
f 462/107/1096 463/108/1097 466/111/1098 
f 467/112/1099 468/113/1100 469/114/1101 
f 467/112/1102 469/114/1103 470/115/1104 
f 467/112/1105 470/115/1106 471/116/1107 
f 467/112/1108 471/116/1109 468/113/1110 
f 472/117/1111 474/119/1112 473/118/1113 
f 472/117/1114 475/120/1115 474/119/1116 
f 472/117/1117 476/121/1118 475/120/1119 
f 472/117/1120 473/118/1121 476/121/1122 
f 477/122/1123 478/123/1124 479/124/1125 
f 477/122/1126 479/124/1127 480/125/1128 
f 477/122/1129 480/125/1130 481/126/1131 
f 477/122/1132 481/126/1133 478/123/1134 
f 482/127/1135 484/129/1136 483/128/1137 
f 482/127/1138 485/130/1139 484/129/1140 
f 482/127/1141 486/131/1142 485/130/1143 
f 482/127/1144 483/128/1145 486/131/1146 
# 12 polygons - 366 triangles

